^C:\USERS\TIAGO\DOCUMENTS\VISUAL STUDIO 2012\PROJECTS\COMPILER_TESTE_V1\COMPILER_TESTE_V0\STDAFX.CPP
/c /Zi /nologo /W3 /WX- /sdl /O2 /Oi /Oy- /GL /D WIN32 /D NDEBUG /D _CONSOLE /D _UNICODE /D UNICODE /D _CRT_SECURE_NO_WARNINGS /Gm- /EHsc /MD /GS /Gy /fp:precise /Zc:wchar_t /Zc:forScope /Yc"stdafx.h" /Fp"RELEASE\COMPILER_TESTE_V0.PCH" /Fo"RELEASE\\" /Fd"RELEASE\VC110.PDB" /Gd /TP /analyze- C:\USERS\TIAGO\DOCUMENTS\VISUAL STUDIO 2012\PROJECTS\COMPILER_TESTE_V1\COMPILER_TESTE_V0\STDAFX.CPP
^C:\USERS\TIAGO\DOCUMENTS\VISUAL STUDIO 2012\PROJECTS\COMPILER_TESTE_V1\COMPILER_TESTE_V0\BUFFER.CPP
/c /Zi /nologo /W3 /WX- /sdl /O2 /Oi /Oy- /GL /D WIN32 /D NDEBUG /D _CONSOLE /D _UNICODE /D UNICODE /D _CRT_SECURE_NO_WARNINGS /Gm- /EHsc /MD /GS /Gy /fp:precise /Zc:wchar_t /Zc:forScope /Yu"stdafx.h" /Fp"RELEASE\COMPILER_TESTE_V0.PCH" /Fo"RELEASE\\" /Fd"RELEASE\VC110.PDB" /Gd /TP /analyze- C:\USERS\TIAGO\DOCUMENTS\VISUAL STUDIO 2012\PROJECTS\COMPILER_TESTE_V1\COMPILER_TESTE_V0\BUFFER.CPP
^C:\USERS\TIAGO\DOCUMENTS\VISUAL STUDIO 2012\PROJECTS\COMPILER_TESTE_V1\COMPILER_TESTE_V0\COMMON.CPP
/c /Zi /nologo /W3 /WX- /sdl /O2 /Oi /Oy- /GL /D WIN32 /D NDEBUG /D _CONSOLE /D _UNICODE /D UNICODE /D _CRT_SECURE_NO_WARNINGS /Gm- /EHsc /MD /GS /Gy /fp:precise /Zc:wchar_t /Zc:forScope /Yu"stdafx.h" /Fp"RELEASE\COMPILER_TESTE_V0.PCH" /Fo"RELEASE\\" /Fd"RELEASE\VC110.PDB" /Gd /TP /analyze- C:\USERS\TIAGO\DOCUMENTS\VISUAL STUDIO 2012\PROJECTS\COMPILER_TESTE_V1\COMPILER_TESTE_V0\COMMON.CPP
^C:\USERS\TIAGO\DOCUMENTS\VISUAL STUDIO 2012\PROJECTS\COMPILER_TESTE_V1\COMPILER_TESTE_V0\COMPILER_TESTE_V0.CPP
/c /Zi /nologo /W3 /WX- /sdl /O2 /Oi /Oy- /GL /D WIN32 /D NDEBUG /D _CONSOLE /D _UNICODE /D UNICODE /D _CRT_SECURE_NO_WARNINGS /Gm- /EHsc /MD /GS /Gy /fp:precise /Zc:wchar_t /Zc:forScope /Yu"stdafx.h" /Fp"RELEASE\COMPILER_TESTE_V0.PCH" /Fo"RELEASE\\" /Fd"RELEASE\VC110.PDB" /Gd /TP /analyze- C:\USERS\TIAGO\DOCUMENTS\VISUAL STUDIO 2012\PROJECTS\COMPILER_TESTE_V1\COMPILER_TESTE_V0\COMPILER_TESTE_V0.CPP
^C:\USERS\TIAGO\DOCUMENTS\VISUAL STUDIO 2012\PROJECTS\COMPILER_TESTE_V1\COMPILER_TESTE_V0\COMPLIST.CPP
/c /Zi /nologo /W3 /WX- /sdl /O2 /Oi /Oy- /GL /D WIN32 /D NDEBUG /D _CONSOLE /D _UNICODE /D UNICODE /D _CRT_SECURE_NO_WARNINGS /Gm- /EHsc /MD /GS /Gy /fp:precise /Zc:wchar_t /Zc:forScope /Yu"stdafx.h" /Fp"RELEASE\COMPILER_TESTE_V0.PCH" /Fo"RELEASE\\" /Fd"RELEASE\VC110.PDB" /Gd /TP /analyze- C:\USERS\TIAGO\DOCUMENTS\VISUAL STUDIO 2012\PROJECTS\COMPILER_TESTE_V1\COMPILER_TESTE_V0\COMPLIST.CPP
^C:\USERS\TIAGO\DOCUMENTS\VISUAL STUDIO 2012\PROJECTS\COMPILER_TESTE_V1\COMPILER_TESTE_V0\ERROR.CPP
/c /Zi /nologo /W3 /WX- /sdl /O2 /Oi /Oy- /GL /D WIN32 /D NDEBUG /D _CONSOLE /D _UNICODE /D UNICODE /D _CRT_SECURE_NO_WARNINGS /Gm- /EHsc /MD /GS /Gy /fp:precise /Zc:wchar_t /Zc:forScope /Yu"stdafx.h" /Fp"RELEASE\COMPILER_TESTE_V0.PCH" /Fo"RELEASE\\" /Fd"RELEASE\VC110.PDB" /Gd /TP /analyze- C:\USERS\TIAGO\DOCUMENTS\VISUAL STUDIO 2012\PROJECTS\COMPILER_TESTE_V1\COMPILER_TESTE_V0\ERROR.CPP
^C:\USERS\TIAGO\DOCUMENTS\VISUAL STUDIO 2012\PROJECTS\COMPILER_TESTE_V1\COMPILER_TESTE_V0\EXEC.CPP
/c /Zi /nologo /W3 /WX- /sdl /O2 /Oi /Oy- /GL /D WIN32 /D NDEBUG /D _CONSOLE /D _UNICODE /D UNICODE /D _CRT_SECURE_NO_WARNINGS /Gm- /EHsc /MD /GS /Gy /fp:precise /Zc:wchar_t /Zc:forScope /Yu"stdafx.h" /Fp"RELEASE\COMPILER_TESTE_V0.PCH" /Fo"RELEASE\\" /Fd"RELEASE\VC110.PDB" /Gd /TP /analyze- C:\USERS\TIAGO\DOCUMENTS\VISUAL STUDIO 2012\PROJECTS\COMPILER_TESTE_V1\COMPILER_TESTE_V0\EXEC.CPP
^C:\USERS\TIAGO\DOCUMENTS\VISUAL STUDIO 2012\PROJECTS\COMPILER_TESTE_V1\COMPILER_TESTE_V0\EXECEXPR.CPP
/c /Zi /nologo /W3 /WX- /sdl /O2 /Oi /Oy- /GL /D WIN32 /D NDEBUG /D _CONSOLE /D _UNICODE /D UNICODE /D _CRT_SECURE_NO_WARNINGS /Gm- /EHsc /MD /GS /Gy /fp:precise /Zc:wchar_t /Zc:forScope /Yu"stdafx.h" /Fp"RELEASE\COMPILER_TESTE_V0.PCH" /Fo"RELEASE\\" /Fd"RELEASE\VC110.PDB" /Gd /TP /analyze- C:\USERS\TIAGO\DOCUMENTS\VISUAL STUDIO 2012\PROJECTS\COMPILER_TESTE_V1\COMPILER_TESTE_V0\EXECEXPR.CPP
^C:\USERS\TIAGO\DOCUMENTS\VISUAL STUDIO 2012\PROJECTS\COMPILER_TESTE_V1\COMPILER_TESTE_V0\EXECSTMT.CPP
/c /Zi /nologo /W3 /WX- /sdl /O2 /Oi /Oy- /GL /D WIN32 /D NDEBUG /D _CONSOLE /D _UNICODE /D UNICODE /D _CRT_SECURE_NO_WARNINGS /Gm- /EHsc /MD /GS /Gy /fp:precise /Zc:wchar_t /Zc:forScope /Yu"stdafx.h" /Fp"RELEASE\COMPILER_TESTE_V0.PCH" /Fo"RELEASE\\" /Fd"RELEASE\VC110.PDB" /Gd /TP /analyze- C:\USERS\TIAGO\DOCUMENTS\VISUAL STUDIO 2012\PROJECTS\COMPILER_TESTE_V1\COMPILER_TESTE_V0\EXECSTMT.CPP
^C:\USERS\TIAGO\DOCUMENTS\VISUAL STUDIO 2012\PROJECTS\COMPILER_TESTE_V1\COMPILER_TESTE_V0\ICODE.CPP
/c /Zi /nologo /W3 /WX- /sdl /O2 /Oi /Oy- /GL /D WIN32 /D NDEBUG /D _CONSOLE /D _UNICODE /D UNICODE /D _CRT_SECURE_NO_WARNINGS /Gm- /EHsc /MD /GS /Gy /fp:precise /Zc:wchar_t /Zc:forScope /Yu"stdafx.h" /Fp"RELEASE\COMPILER_TESTE_V0.PCH" /Fo"RELEASE\\" /Fd"RELEASE\VC110.PDB" /Gd /TP /analyze- C:\USERS\TIAGO\DOCUMENTS\VISUAL STUDIO 2012\PROJECTS\COMPILER_TESTE_V1\COMPILER_TESTE_V0\ICODE.CPP
^C:\USERS\TIAGO\DOCUMENTS\VISUAL STUDIO 2012\PROJECTS\COMPILER_TESTE_V1\COMPILER_TESTE_V0\PARSEDECL.CPP
/c /Zi /nologo /W3 /WX- /sdl /O2 /Oi /Oy- /GL /D WIN32 /D NDEBUG /D _CONSOLE /D _UNICODE /D UNICODE /D _CRT_SECURE_NO_WARNINGS /Gm- /EHsc /MD /GS /Gy /fp:precise /Zc:wchar_t /Zc:forScope /Yu"stdafx.h" /Fp"RELEASE\COMPILER_TESTE_V0.PCH" /Fo"RELEASE\\" /Fd"RELEASE\VC110.PDB" /Gd /TP /analyze- C:\USERS\TIAGO\DOCUMENTS\VISUAL STUDIO 2012\PROJECTS\COMPILER_TESTE_V1\COMPILER_TESTE_V0\PARSEDECL.CPP
^C:\USERS\TIAGO\DOCUMENTS\VISUAL STUDIO 2012\PROJECTS\COMPILER_TESTE_V1\COMPILER_TESTE_V0\PARSER.CPP
/c /Zi /nologo /W3 /WX- /sdl /O2 /Oi /Oy- /GL /D WIN32 /D NDEBUG /D _CONSOLE /D _UNICODE /D UNICODE /D _CRT_SECURE_NO_WARNINGS /Gm- /EHsc /MD /GS /Gy /fp:precise /Zc:wchar_t /Zc:forScope /Yu"stdafx.h" /Fp"RELEASE\COMPILER_TESTE_V0.PCH" /Fo"RELEASE\\" /Fd"RELEASE\VC110.PDB" /Gd /TP /analyze- C:\USERS\TIAGO\DOCUMENTS\VISUAL STUDIO 2012\PROJECTS\COMPILER_TESTE_V1\COMPILER_TESTE_V0\PARSER.CPP
^C:\USERS\TIAGO\DOCUMENTS\VISUAL STUDIO 2012\PROJECTS\COMPILER_TESTE_V1\COMPILER_TESTE_V0\PARSEXPR.CPP
/c /Zi /nologo /W3 /WX- /sdl /O2 /Oi /Oy- /GL /D WIN32 /D NDEBUG /D _CONSOLE /D _UNICODE /D UNICODE /D _CRT_SECURE_NO_WARNINGS /Gm- /EHsc /MD /GS /Gy /fp:precise /Zc:wchar_t /Zc:forScope /Yu"stdafx.h" /Fp"RELEASE\COMPILER_TESTE_V0.PCH" /Fo"RELEASE\\" /Fd"RELEASE\VC110.PDB" /Gd /TP /analyze- C:\USERS\TIAGO\DOCUMENTS\VISUAL STUDIO 2012\PROJECTS\COMPILER_TESTE_V1\COMPILER_TESTE_V0\PARSEXPR.CPP
^C:\USERS\TIAGO\DOCUMENTS\VISUAL STUDIO 2012\PROJECTS\COMPILER_TESTE_V1\COMPILER_TESTE_V0\PARSSTMT.CPP
/c /Zi /nologo /W3 /WX- /sdl /O2 /Oi /Oy- /GL /D WIN32 /D NDEBUG /D _CONSOLE /D _UNICODE /D UNICODE /D _CRT_SECURE_NO_WARNINGS /Gm- /EHsc /MD /GS /Gy /fp:precise /Zc:wchar_t /Zc:forScope /Yu"stdafx.h" /Fp"RELEASE\COMPILER_TESTE_V0.PCH" /Fo"RELEASE\\" /Fd"RELEASE\VC110.PDB" /Gd /TP /analyze- C:\USERS\TIAGO\DOCUMENTS\VISUAL STUDIO 2012\PROJECTS\COMPILER_TESTE_V1\COMPILER_TESTE_V0\PARSSTMT.CPP
^C:\USERS\TIAGO\DOCUMENTS\VISUAL STUDIO 2012\PROJECTS\COMPILER_TESTE_V1\COMPILER_TESTE_V0\SCANNER.CPP
/c /Zi /nologo /W3 /WX- /sdl /O2 /Oi /Oy- /GL /D WIN32 /D NDEBUG /D _CONSOLE /D _UNICODE /D UNICODE /D _CRT_SECURE_NO_WARNINGS /Gm- /EHsc /MD /GS /Gy /fp:precise /Zc:wchar_t /Zc:forScope /Yu"stdafx.h" /Fp"RELEASE\COMPILER_TESTE_V0.PCH" /Fo"RELEASE\\" /Fd"RELEASE\VC110.PDB" /Gd /TP /analyze- C:\USERS\TIAGO\DOCUMENTS\VISUAL STUDIO 2012\PROJECTS\COMPILER_TESTE_V1\COMPILER_TESTE_V0\SCANNER.CPP
^C:\USERS\TIAGO\DOCUMENTS\VISUAL STUDIO 2012\PROJECTS\COMPILER_TESTE_V1\COMPILER_TESTE_V0\SYMTAB.CPP
/c /Zi /nologo /W3 /WX- /sdl /O2 /Oi /Oy- /GL /D WIN32 /D NDEBUG /D _CONSOLE /D _UNICODE /D UNICODE /D _CRT_SECURE_NO_WARNINGS /Gm- /EHsc /MD /GS /Gy /fp:precise /Zc:wchar_t /Zc:forScope /Yu"stdafx.h" /Fp"RELEASE\COMPILER_TESTE_V0.PCH" /Fo"RELEASE\\" /Fd"RELEASE\VC110.PDB" /Gd /TP /analyze- C:\USERS\TIAGO\DOCUMENTS\VISUAL STUDIO 2012\PROJECTS\COMPILER_TESTE_V1\COMPILER_TESTE_V0\SYMTAB.CPP
^C:\USERS\TIAGO\DOCUMENTS\VISUAL STUDIO 2012\PROJECTS\COMPILER_TESTE_V1\COMPILER_TESTE_V0\TKNNUM.CPP
/c /Zi /nologo /W3 /WX- /sdl /O2 /Oi /Oy- /GL /D WIN32 /D NDEBUG /D _CONSOLE /D _UNICODE /D UNICODE /D _CRT_SECURE_NO_WARNINGS /Gm- /EHsc /MD /GS /Gy /fp:precise /Zc:wchar_t /Zc:forScope /Yu"stdafx.h" /Fp"RELEASE\COMPILER_TESTE_V0.PCH" /Fo"RELEASE\\" /Fd"RELEASE\VC110.PDB" /Gd /TP /analyze- C:\USERS\TIAGO\DOCUMENTS\VISUAL STUDIO 2012\PROJECTS\COMPILER_TESTE_V1\COMPILER_TESTE_V0\TKNNUM.CPP
^C:\USERS\TIAGO\DOCUMENTS\VISUAL STUDIO 2012\PROJECTS\COMPILER_TESTE_V1\COMPILER_TESTE_V0\TKNSTRSP.CPP
/c /Zi /nologo /W3 /WX- /sdl /O2 /Oi /Oy- /GL /D WIN32 /D NDEBUG /D _CONSOLE /D _UNICODE /D UNICODE /D _CRT_SECURE_NO_WARNINGS /Gm- /EHsc /MD /GS /Gy /fp:precise /Zc:wchar_t /Zc:forScope /Yu"stdafx.h" /Fp"RELEASE\COMPILER_TESTE_V0.PCH" /Fo"RELEASE\\" /Fd"RELEASE\VC110.PDB" /Gd /TP /analyze- C:\USERS\TIAGO\DOCUMENTS\VISUAL STUDIO 2012\PROJECTS\COMPILER_TESTE_V1\COMPILER_TESTE_V0\TKNSTRSP.CPP
^C:\USERS\TIAGO\DOCUMENTS\VISUAL STUDIO 2012\PROJECTS\COMPILER_TESTE_V1\COMPILER_TESTE_V0\TKNWORD.CPP
/c /Zi /nologo /W3 /WX- /sdl /O2 /Oi /Oy- /GL /D WIN32 /D NDEBUG /D _CONSOLE /D _UNICODE /D UNICODE /D _CRT_SECURE_NO_WARNINGS /Gm- /EHsc /MD /GS /Gy /fp:precise /Zc:wchar_t /Zc:forScope /Yu"stdafx.h" /Fp"RELEASE\COMPILER_TESTE_V0.PCH" /Fo"RELEASE\\" /Fd"RELEASE\VC110.PDB" /Gd /TP /analyze- C:\USERS\TIAGO\DOCUMENTS\VISUAL STUDIO 2012\PROJECTS\COMPILER_TESTE_V1\COMPILER_TESTE_V0\TKNWORD.CPP
^C:\USERS\TIAGO\DOCUMENTS\VISUAL STUDIO 2012\PROJECTS\COMPILER_TESTE_V1\COMPILER_TESTE_V0\TOKEN.CPP
/c /Zi /nologo /W3 /WX- /sdl /O2 /Oi /Oy- /GL /D WIN32 /D NDEBUG /D _CONSOLE /D _UNICODE /D UNICODE /D _CRT_SECURE_NO_WARNINGS /Gm- /EHsc /MD /GS /Gy /fp:precise /Zc:wchar_t /Zc:forScope /Yu"stdafx.h" /Fp"RELEASE\COMPILER_TESTE_V0.PCH" /Fo"RELEASE\\" /Fd"RELEASE\VC110.PDB" /Gd /TP /analyze- C:\USERS\TIAGO\DOCUMENTS\VISUAL STUDIO 2012\PROJECTS\COMPILER_TESTE_V1\COMPILER_TESTE_V0\TOKEN.CPP
^C:\USERS\TIAGO\DOCUMENTS\VISUAL STUDIO 2012\PROJECTS\COMPILER_TESTE_V1\COMPILER_TESTE_V0\TYPES.CPP
/c /Zi /nologo /W3 /WX- /sdl /O2 /Oi /Oy- /GL /D WIN32 /D NDEBUG /D _CONSOLE /D _UNICODE /D UNICODE /D _CRT_SECURE_NO_WARNINGS /Gm- /EHsc /MD /GS /Gy /fp:precise /Zc:wchar_t /Zc:forScope /Yu"stdafx.h" /Fp"RELEASE\COMPILER_TESTE_V0.PCH" /Fo"RELEASE\\" /Fd"RELEASE\VC110.PDB" /Gd /TP /analyze- C:\USERS\TIAGO\DOCUMENTS\VISUAL STUDIO 2012\PROJECTS\COMPILER_TESTE_V1\COMPILER_TESTE_V0\TYPES.CPP
^C:\USERS\MARCELO\DESKTOP\COMPILER_TESTE_V1.1_NOVO\COMPILER_TESTE_V0\STDAFX.CPP
/c /Zi /nologo /W3 /WX- /sdl /O2 /Oi /Oy- /GL /D WIN32 /D NDEBUG /D _CONSOLE /D _UNICODE /D UNICODE /D _CRT_SECURE_NO_WARNINGS /Gm- /EHsc /MD /GS /Gy /fp:precise /Zc:wchar_t /Zc:forScope /Yc"stdafx.h" /Fp"RELEASE\COMPILER_TESTE_V0.PCH" /Fo"RELEASE\\" /Fd"RELEASE\VC110.PDB" /Gd /TP /analyze- C:\USERS\MARCELO\DESKTOP\COMPILER_TESTE_V1.1_NOVO\COMPILER_TESTE_V0\STDAFX.CPP
^C:\USERS\MARCELO\DESKTOP\COMPILER_TESTE_V1.1_NOVO\COMPILER_TESTE_V0\BUFFER.CPP
/c /Zi /nologo /W3 /WX- /sdl /O2 /Oi /Oy- /GL /D WIN32 /D NDEBUG /D _CONSOLE /D _UNICODE /D UNICODE /D _CRT_SECURE_NO_WARNINGS /Gm- /EHsc /MD /GS /Gy /fp:precise /Zc:wchar_t /Zc:forScope /Yu"stdafx.h" /Fp"RELEASE\COMPILER_TESTE_V0.PCH" /Fo"RELEASE\\" /Fd"RELEASE\VC110.PDB" /Gd /TP /analyze- C:\USERS\MARCELO\DESKTOP\COMPILER_TESTE_V1.1_NOVO\COMPILER_TESTE_V0\BUFFER.CPP
^C:\USERS\MARCELO\DESKTOP\COMPILER_TESTE_V1.1_NOVO\COMPILER_TESTE_V0\CODEGEN.CPP
/c /Zi /nologo /W3 /WX- /sdl /O2 /Oi /Oy- /GL /D WIN32 /D NDEBUG /D _CONSOLE /D _UNICODE /D UNICODE /D _CRT_SECURE_NO_WARNINGS /Gm- /EHsc /MD /GS /Gy /fp:precise /Zc:wchar_t /Zc:forScope /Yu"stdafx.h" /Fp"RELEASE\COMPILER_TESTE_V0.PCH" /Fo"RELEASE\\" /Fd"RELEASE\VC110.PDB" /Gd /TP /analyze- C:\USERS\MARCELO\DESKTOP\COMPILER_TESTE_V1.1_NOVO\COMPILER_TESTE_V0\CODEGEN.CPP
^C:\USERS\MARCELO\DESKTOP\COMPILER_TESTE_V1.1_NOVO\COMPILER_TESTE_V0\COMMON.CPP
/c /Zi /nologo /W3 /WX- /sdl /O2 /Oi /Oy- /GL /D WIN32 /D NDEBUG /D _CONSOLE /D _UNICODE /D UNICODE /D _CRT_SECURE_NO_WARNINGS /Gm- /EHsc /MD /GS /Gy /fp:precise /Zc:wchar_t /Zc:forScope /Yu"stdafx.h" /Fp"RELEASE\COMPILER_TESTE_V0.PCH" /Fo"RELEASE\\" /Fd"RELEASE\VC110.PDB" /Gd /TP /analyze- C:\USERS\MARCELO\DESKTOP\COMPILER_TESTE_V1.1_NOVO\COMPILER_TESTE_V0\COMMON.CPP
^C:\USERS\MARCELO\DESKTOP\COMPILER_TESTE_V1.1_NOVO\COMPILER_TESTE_V0\COMPILER_TESTE_V0.CPP
/c /Zi /nologo /W3 /WX- /sdl /O2 /Oi /Oy- /GL /D WIN32 /D NDEBUG /D _CONSOLE /D _UNICODE /D UNICODE /D _CRT_SECURE_NO_WARNINGS /Gm- /EHsc /MD /GS /Gy /fp:precise /Zc:wchar_t /Zc:forScope /Yu"stdafx.h" /Fp"RELEASE\COMPILER_TESTE_V0.PCH" /Fo"RELEASE\\" /Fd"RELEASE\VC110.PDB" /Gd /TP /analyze- C:\USERS\MARCELO\DESKTOP\COMPILER_TESTE_V1.1_NOVO\COMPILER_TESTE_V0\COMPILER_TESTE_V0.CPP
^C:\USERS\MARCELO\DESKTOP\COMPILER_TESTE_V1.1_NOVO\COMPILER_TESTE_V0\COMPLIST.CPP
/c /Zi /nologo /W3 /WX- /sdl /O2 /Oi /Oy- /GL /D WIN32 /D NDEBUG /D _CONSOLE /D _UNICODE /D UNICODE /D _CRT_SECURE_NO_WARNINGS /Gm- /EHsc /MD /GS /Gy /fp:precise /Zc:wchar_t /Zc:forScope /Yu"stdafx.h" /Fp"RELEASE\COMPILER_TESTE_V0.PCH" /Fo"RELEASE\\" /Fd"RELEASE\VC110.PDB" /Gd /TP /analyze- C:\USERS\MARCELO\DESKTOP\COMPILER_TESTE_V1.1_NOVO\COMPILER_TESTE_V0\COMPLIST.CPP
^C:\USERS\MARCELO\DESKTOP\COMPILER_TESTE_V1.1_NOVO\COMPILER_TESTE_V0\DPLIST.CPP
/c /Zi /nologo /W3 /WX- /sdl /O2 /Oi /Oy- /GL /D WIN32 /D NDEBUG /D _CONSOLE /D _UNICODE /D UNICODE /D _CRT_SECURE_NO_WARNINGS /Gm- /EHsc /MD /GS /Gy /fp:precise /Zc:wchar_t /Zc:forScope /Yu"stdafx.h" /Fp"RELEASE\COMPILER_TESTE_V0.PCH" /Fo"RELEASE\\" /Fd"RELEASE\VC110.PDB" /Gd /TP /analyze- C:\USERS\MARCELO\DESKTOP\COMPILER_TESTE_V1.1_NOVO\COMPILER_TESTE_V0\DPLIST.CPP
^C:\USERS\MARCELO\DESKTOP\COMPILER_TESTE_V1.1_NOVO\COMPILER_TESTE_V0\EMITASM.CPP
/c /Zi /nologo /W3 /WX- /sdl /O2 /Oi /Oy- /GL /D WIN32 /D NDEBUG /D _CONSOLE /D _UNICODE /D UNICODE /D _CRT_SECURE_NO_WARNINGS /Gm- /EHsc /MD /GS /Gy /fp:precise /Zc:wchar_t /Zc:forScope /Yu"stdafx.h" /Fp"RELEASE\COMPILER_TESTE_V0.PCH" /Fo"RELEASE\\" /Fd"RELEASE\VC110.PDB" /Gd /TP /analyze- C:\USERS\MARCELO\DESKTOP\COMPILER_TESTE_V1.1_NOVO\COMPILER_TESTE_V0\EMITASM.CPP
^C:\USERS\MARCELO\DESKTOP\COMPILER_TESTE_V1.1_NOVO\COMPILER_TESTE_V0\EMITCODE.CPP
/c /Zi /nologo /W3 /WX- /sdl /O2 /Oi /Oy- /GL /D WIN32 /D NDEBUG /D _CONSOLE /D _UNICODE /D UNICODE /D _CRT_SECURE_NO_WARNINGS /Gm- /EHsc /MD /GS /Gy /fp:precise /Zc:wchar_t /Zc:forScope /Yu"stdafx.h" /Fp"RELEASE\COMPILER_TESTE_V0.PCH" /Fo"RELEASE\\" /Fd"RELEASE\VC110.PDB" /Gd /TP /analyze- C:\USERS\MARCELO\DESKTOP\COMPILER_TESTE_V1.1_NOVO\COMPILER_TESTE_V0\EMITCODE.CPP
^C:\USERS\MARCELO\DESKTOP\COMPILER_TESTE_V1.1_NOVO\COMPILER_TESTE_V0\EMITEXPR.CPP
/c /Zi /nologo /W3 /WX- /sdl /O2 /Oi /Oy- /GL /D WIN32 /D NDEBUG /D _CONSOLE /D _UNICODE /D UNICODE /D _CRT_SECURE_NO_WARNINGS /Gm- /EHsc /MD /GS /Gy /fp:precise /Zc:wchar_t /Zc:forScope /Yu"stdafx.h" /Fp"RELEASE\COMPILER_TESTE_V0.PCH" /Fo"RELEASE\\" /Fd"RELEASE\VC110.PDB" /Gd /TP /analyze- C:\USERS\MARCELO\DESKTOP\COMPILER_TESTE_V1.1_NOVO\COMPILER_TESTE_V0\EMITEXPR.CPP
^C:\USERS\MARCELO\DESKTOP\COMPILER_TESTE_V1.1_NOVO\COMPILER_TESTE_V0\EMITRTN.CPP
/c /Zi /nologo /W3 /WX- /sdl /O2 /Oi /Oy- /GL /D WIN32 /D NDEBUG /D _CONSOLE /D _UNICODE /D UNICODE /D _CRT_SECURE_NO_WARNINGS /Gm- /EHsc /MD /GS /Gy /fp:precise /Zc:wchar_t /Zc:forScope /Yu"stdafx.h" /Fp"RELEASE\COMPILER_TESTE_V0.PCH" /Fo"RELEASE\\" /Fd"RELEASE\VC110.PDB" /Gd /TP /analyze- C:\USERS\MARCELO\DESKTOP\COMPILER_TESTE_V1.1_NOVO\COMPILER_TESTE_V0\EMITRTN.CPP
^C:\USERS\MARCELO\DESKTOP\COMPILER_TESTE_V1.1_NOVO\COMPILER_TESTE_V0\EMITSRC.CPP
/c /Zi /nologo /W3 /WX- /sdl /O2 /Oi /Oy- /GL /D WIN32 /D NDEBUG /D _CONSOLE /D _UNICODE /D UNICODE /D _CRT_SECURE_NO_WARNINGS /Gm- /EHsc /MD /GS /Gy /fp:precise /Zc:wchar_t /Zc:forScope /Yu"stdafx.h" /Fp"RELEASE\COMPILER_TESTE_V0.PCH" /Fo"RELEASE\\" /Fd"RELEASE\VC110.PDB" /Gd /TP /analyze- C:\USERS\MARCELO\DESKTOP\COMPILER_TESTE_V1.1_NOVO\COMPILER_TESTE_V0\EMITSRC.CPP
^C:\USERS\MARCELO\DESKTOP\COMPILER_TESTE_V1.1_NOVO\COMPILER_TESTE_V0\EMITSTMT.CPP
/c /Zi /nologo /W3 /WX- /sdl /O2 /Oi /Oy- /GL /D WIN32 /D NDEBUG /D _CONSOLE /D _UNICODE /D UNICODE /D _CRT_SECURE_NO_WARNINGS /Gm- /EHsc /MD /GS /Gy /fp:precise /Zc:wchar_t /Zc:forScope /Yu"stdafx.h" /Fp"RELEASE\COMPILER_TESTE_V0.PCH" /Fo"RELEASE\\" /Fd"RELEASE\VC110.PDB" /Gd /TP /analyze- C:\USERS\MARCELO\DESKTOP\COMPILER_TESTE_V1.1_NOVO\COMPILER_TESTE_V0\EMITSTMT.CPP
^C:\USERS\MARCELO\DESKTOP\COMPILER_TESTE_V1.1_NOVO\COMPILER_TESTE_V0\ERROR.CPP
/c /Zi /nologo /W3 /WX- /sdl /O2 /Oi /Oy- /GL /D WIN32 /D NDEBUG /D _CONSOLE /D _UNICODE /D UNICODE /D _CRT_SECURE_NO_WARNINGS /Gm- /EHsc /MD /GS /Gy /fp:precise /Zc:wchar_t /Zc:forScope /Yu"stdafx.h" /Fp"RELEASE\COMPILER_TESTE_V0.PCH" /Fo"RELEASE\\" /Fd"RELEASE\VC110.PDB" /Gd /TP /analyze- C:\USERS\MARCELO\DESKTOP\COMPILER_TESTE_V1.1_NOVO\COMPILER_TESTE_V0\ERROR.CPP
^C:\USERS\MARCELO\DESKTOP\COMPILER_TESTE_V1.1_NOVO\COMPILER_TESTE_V0\EXEC.CPP
/c /Zi /nologo /W3 /WX- /sdl /O2 /Oi /Oy- /GL /D WIN32 /D NDEBUG /D _CONSOLE /D _UNICODE /D UNICODE /D _CRT_SECURE_NO_WARNINGS /Gm- /EHsc /MD /GS /Gy /fp:precise /Zc:wchar_t /Zc:forScope /Yu"stdafx.h" /Fp"RELEASE\COMPILER_TESTE_V0.PCH" /Fo"RELEASE\\" /Fd"RELEASE\VC110.PDB" /Gd /TP /analyze- C:\USERS\MARCELO\DESKTOP\COMPILER_TESTE_V1.1_NOVO\COMPILER_TESTE_V0\EXEC.CPP
^C:\USERS\MARCELO\DESKTOP\COMPILER_TESTE_V1.1_NOVO\COMPILER_TESTE_V0\EXECEXPR.CPP
/c /Zi /nologo /W3 /WX- /sdl /O2 /Oi /Oy- /GL /D WIN32 /D NDEBUG /D _CONSOLE /D _UNICODE /D UNICODE /D _CRT_SECURE_NO_WARNINGS /Gm- /EHsc /MD /GS /Gy /fp:precise /Zc:wchar_t /Zc:forScope /Yu"stdafx.h" /Fp"RELEASE\COMPILER_TESTE_V0.PCH" /Fo"RELEASE\\" /Fd"RELEASE\VC110.PDB" /Gd /TP /analyze- C:\USERS\MARCELO\DESKTOP\COMPILER_TESTE_V1.1_NOVO\COMPILER_TESTE_V0\EXECEXPR.CPP
^C:\USERS\MARCELO\DESKTOP\COMPILER_TESTE_V1.1_NOVO\COMPILER_TESTE_V0\EXECRTN.CPP
/c /Zi /nologo /W3 /WX- /sdl /O2 /Oi /Oy- /GL /D WIN32 /D NDEBUG /D _CONSOLE /D _UNICODE /D UNICODE /D _CRT_SECURE_NO_WARNINGS /Gm- /EHsc /MD /GS /Gy /fp:precise /Zc:wchar_t /Zc:forScope /Yu"stdafx.h" /Fp"RELEASE\COMPILER_TESTE_V0.PCH" /Fo"RELEASE\\" /Fd"RELEASE\VC110.PDB" /Gd /TP /analyze- C:\USERS\MARCELO\DESKTOP\COMPILER_TESTE_V1.1_NOVO\COMPILER_TESTE_V0\EXECRTN.CPP
^C:\USERS\MARCELO\DESKTOP\COMPILER_TESTE_V1.1_NOVO\COMPILER_TESTE_V0\EXECSTMT.CPP
/c /Zi /nologo /W3 /WX- /sdl /O2 /Oi /Oy- /GL /D WIN32 /D NDEBUG /D _CONSOLE /D _UNICODE /D UNICODE /D _CRT_SECURE_NO_WARNINGS /Gm- /EHsc /MD /GS /Gy /fp:precise /Zc:wchar_t /Zc:forScope /Yu"stdafx.h" /Fp"RELEASE\COMPILER_TESTE_V0.PCH" /Fo"RELEASE\\" /Fd"RELEASE\VC110.PDB" /Gd /TP /analyze- C:\USERS\MARCELO\DESKTOP\COMPILER_TESTE_V1.1_NOVO\COMPILER_TESTE_V0\EXECSTMT.CPP
^C:\USERS\MARCELO\DESKTOP\COMPILER_TESTE_V1.1_NOVO\COMPILER_TESTE_V0\ICODE.CPP
/c /Zi /nologo /W3 /WX- /sdl /O2 /Oi /Oy- /GL /D WIN32 /D NDEBUG /D _CONSOLE /D _UNICODE /D UNICODE /D _CRT_SECURE_NO_WARNINGS /Gm- /EHsc /MD /GS /Gy /fp:precise /Zc:wchar_t /Zc:forScope /Yu"stdafx.h" /Fp"RELEASE\COMPILER_TESTE_V0.PCH" /Fo"RELEASE\\" /Fd"RELEASE\VC110.PDB" /Gd /TP /analyze- C:\USERS\MARCELO\DESKTOP\COMPILER_TESTE_V1.1_NOVO\COMPILER_TESTE_V0\ICODE.CPP
^C:\USERS\MARCELO\DESKTOP\COMPILER_TESTE_V1.1_NOVO\COMPILER_TESTE_V0\LINKER.CPP
/c /Zi /nologo /W3 /WX- /sdl /O2 /Oi /Oy- /GL /D WIN32 /D NDEBUG /D _CONSOLE /D _UNICODE /D UNICODE /D _CRT_SECURE_NO_WARNINGS /Gm- /EHsc /MD /GS /Gy /fp:precise /Zc:wchar_t /Zc:forScope /Yu"stdafx.h" /Fp"RELEASE\COMPILER_TESTE_V0.PCH" /Fo"RELEASE\\" /Fd"RELEASE\VC110.PDB" /Gd /TP /analyze- C:\USERS\MARCELO\DESKTOP\COMPILER_TESTE_V1.1_NOVO\COMPILER_TESTE_V0\LINKER.CPP
^C:\USERS\MARCELO\DESKTOP\COMPILER_TESTE_V1.1_NOVO\COMPILER_TESTE_V0\PARSEDECL.CPP
/c /Zi /nologo /W3 /WX- /sdl /O2 /Oi /Oy- /GL /D WIN32 /D NDEBUG /D _CONSOLE /D _UNICODE /D UNICODE /D _CRT_SECURE_NO_WARNINGS /Gm- /EHsc /MD /GS /Gy /fp:precise /Zc:wchar_t /Zc:forScope /Yu"stdafx.h" /Fp"RELEASE\COMPILER_TESTE_V0.PCH" /Fo"RELEASE\\" /Fd"RELEASE\VC110.PDB" /Gd /TP /analyze- C:\USERS\MARCELO\DESKTOP\COMPILER_TESTE_V1.1_NOVO\COMPILER_TESTE_V0\PARSEDECL.CPP
^C:\USERS\MARCELO\DESKTOP\COMPILER_TESTE_V1.1_NOVO\COMPILER_TESTE_V0\PARSER.CPP
/c /Zi /nologo /W3 /WX- /sdl /O2 /Oi /Oy- /GL /D WIN32 /D NDEBUG /D _CONSOLE /D _UNICODE /D UNICODE /D _CRT_SECURE_NO_WARNINGS /Gm- /EHsc /MD /GS /Gy /fp:precise /Zc:wchar_t /Zc:forScope /Yu"stdafx.h" /Fp"RELEASE\COMPILER_TESTE_V0.PCH" /Fo"RELEASE\\" /Fd"RELEASE\VC110.PDB" /Gd /TP /analyze- C:\USERS\MARCELO\DESKTOP\COMPILER_TESTE_V1.1_NOVO\COMPILER_TESTE_V0\PARSER.CPP
^C:\USERS\MARCELO\DESKTOP\COMPILER_TESTE_V1.1_NOVO\COMPILER_TESTE_V0\PARSEXPR.CPP
/c /Zi /nologo /W3 /WX- /sdl /O2 /Oi /Oy- /GL /D WIN32 /D NDEBUG /D _CONSOLE /D _UNICODE /D UNICODE /D _CRT_SECURE_NO_WARNINGS /Gm- /EHsc /MD /GS /Gy /fp:precise /Zc:wchar_t /Zc:forScope /Yu"stdafx.h" /Fp"RELEASE\COMPILER_TESTE_V0.PCH" /Fo"RELEASE\\" /Fd"RELEASE\VC110.PDB" /Gd /TP /analyze- C:\USERS\MARCELO\DESKTOP\COMPILER_TESTE_V1.1_NOVO\COMPILER_TESTE_V0\PARSEXPR.CPP
^C:\USERS\MARCELO\DESKTOP\COMPILER_TESTE_V1.1_NOVO\COMPILER_TESTE_V0\PARSSTMT.CPP
/c /Zi /nologo /W3 /WX- /sdl /O2 /Oi /Oy- /GL /D WIN32 /D NDEBUG /D _CONSOLE /D _UNICODE /D UNICODE /D _CRT_SECURE_NO_WARNINGS /Gm- /EHsc /MD /GS /Gy /fp:precise /Zc:wchar_t /Zc:forScope /Yu"stdafx.h" /Fp"RELEASE\COMPILER_TESTE_V0.PCH" /Fo"RELEASE\\" /Fd"RELEASE\VC110.PDB" /Gd /TP /analyze- C:\USERS\MARCELO\DESKTOP\COMPILER_TESTE_V1.1_NOVO\COMPILER_TESTE_V0\PARSSTMT.CPP
^C:\USERS\MARCELO\DESKTOP\COMPILER_TESTE_V1.1_NOVO\COMPILER_TESTE_V0\SCANNER.CPP
/c /Zi /nologo /W3 /WX- /sdl /O2 /Oi /Oy- /GL /D WIN32 /D NDEBUG /D _CONSOLE /D _UNICODE /D UNICODE /D _CRT_SECURE_NO_WARNINGS /Gm- /EHsc /MD /GS /Gy /fp:precise /Zc:wchar_t /Zc:forScope /Yu"stdafx.h" /Fp"RELEASE\COMPILER_TESTE_V0.PCH" /Fo"RELEASE\\" /Fd"RELEASE\VC110.PDB" /Gd /TP /analyze- C:\USERS\MARCELO\DESKTOP\COMPILER_TESTE_V1.1_NOVO\COMPILER_TESTE_V0\SCANNER.CPP
^C:\USERS\MARCELO\DESKTOP\COMPILER_TESTE_V1.1_NOVO\COMPILER_TESTE_V0\SYMTAB.CPP
/c /Zi /nologo /W3 /WX- /sdl /O2 /Oi /Oy- /GL /D WIN32 /D NDEBUG /D _CONSOLE /D _UNICODE /D UNICODE /D _CRT_SECURE_NO_WARNINGS /Gm- /EHsc /MD /GS /Gy /fp:precise /Zc:wchar_t /Zc:forScope /Yu"stdafx.h" /Fp"RELEASE\COMPILER_TESTE_V0.PCH" /Fo"RELEASE\\" /Fd"RELEASE\VC110.PDB" /Gd /TP /analyze- C:\USERS\MARCELO\DESKTOP\COMPILER_TESTE_V1.1_NOVO\COMPILER_TESTE_V0\SYMTAB.CPP
^C:\USERS\MARCELO\DESKTOP\COMPILER_TESTE_V1.1_NOVO\COMPILER_TESTE_V0\TKNNUM.CPP
/c /Zi /nologo /W3 /WX- /sdl /O2 /Oi /Oy- /GL /D WIN32 /D NDEBUG /D _CONSOLE /D _UNICODE /D UNICODE /D _CRT_SECURE_NO_WARNINGS /Gm- /EHsc /MD /GS /Gy /fp:precise /Zc:wchar_t /Zc:forScope /Yu"stdafx.h" /Fp"RELEASE\COMPILER_TESTE_V0.PCH" /Fo"RELEASE\\" /Fd"RELEASE\VC110.PDB" /Gd /TP /analyze- C:\USERS\MARCELO\DESKTOP\COMPILER_TESTE_V1.1_NOVO\COMPILER_TESTE_V0\TKNNUM.CPP
^C:\USERS\MARCELO\DESKTOP\COMPILER_TESTE_V1.1_NOVO\COMPILER_TESTE_V0\TKNSTRSP.CPP
/c /Zi /nologo /W3 /WX- /sdl /O2 /Oi /Oy- /GL /D WIN32 /D NDEBUG /D _CONSOLE /D _UNICODE /D UNICODE /D _CRT_SECURE_NO_WARNINGS /Gm- /EHsc /MD /GS /Gy /fp:precise /Zc:wchar_t /Zc:forScope /Yu"stdafx.h" /Fp"RELEASE\COMPILER_TESTE_V0.PCH" /Fo"RELEASE\\" /Fd"RELEASE\VC110.PDB" /Gd /TP /analyze- C:\USERS\MARCELO\DESKTOP\COMPILER_TESTE_V1.1_NOVO\COMPILER_TESTE_V0\TKNSTRSP.CPP
^C:\USERS\MARCELO\DESKTOP\COMPILER_TESTE_V1.1_NOVO\COMPILER_TESTE_V0\TKNWORD.CPP
/c /Zi /nologo /W3 /WX- /sdl /O2 /Oi /Oy- /GL /D WIN32 /D NDEBUG /D _CONSOLE /D _UNICODE /D UNICODE /D _CRT_SECURE_NO_WARNINGS /Gm- /EHsc /MD /GS /Gy /fp:precise /Zc:wchar_t /Zc:forScope /Yu"stdafx.h" /Fp"RELEASE\COMPILER_TESTE_V0.PCH" /Fo"RELEASE\\" /Fd"RELEASE\VC110.PDB" /Gd /TP /analyze- C:\USERS\MARCELO\DESKTOP\COMPILER_TESTE_V1.1_NOVO\COMPILER_TESTE_V0\TKNWORD.CPP
^C:\USERS\MARCELO\DESKTOP\COMPILER_TESTE_V1.1_NOVO\COMPILER_TESTE_V0\TOKEN.CPP
/c /Zi /nologo /W3 /WX- /sdl /O2 /Oi /Oy- /GL /D WIN32 /D NDEBUG /D _CONSOLE /D _UNICODE /D UNICODE /D _CRT_SECURE_NO_WARNINGS /Gm- /EHsc /MD /GS /Gy /fp:precise /Zc:wchar_t /Zc:forScope /Yu"stdafx.h" /Fp"RELEASE\COMPILER_TESTE_V0.PCH" /Fo"RELEASE\\" /Fd"RELEASE\VC110.PDB" /Gd /TP /analyze- C:\USERS\MARCELO\DESKTOP\COMPILER_TESTE_V1.1_NOVO\COMPILER_TESTE_V0\TOKEN.CPP
^C:\USERS\MARCELO\DESKTOP\COMPILER_TESTE_V1.1_NOVO\COMPILER_TESTE_V0\TYPES.CPP
/c /Zi /nologo /W3 /WX- /sdl /O2 /Oi /Oy- /GL /D WIN32 /D NDEBUG /D _CONSOLE /D _UNICODE /D UNICODE /D _CRT_SECURE_NO_WARNINGS /Gm- /EHsc /MD /GS /Gy /fp:precise /Zc:wchar_t /Zc:forScope /Yu"stdafx.h" /Fp"RELEASE\COMPILER_TESTE_V0.PCH" /Fo"RELEASE\\" /Fd"RELEASE\VC110.PDB" /Gd /TP /analyze- C:\USERS\MARCELO\DESKTOP\COMPILER_TESTE_V1.1_NOVO\COMPILER_TESTE_V0\TYPES.CPP
^C:\USERS\MARCELO\DESKTOP\COMPILADOR\COMPILER_TESTE_V1.1_NOVO\COMPILER_TESTE_V0\STDAFX.CPP
/c /Zi /nologo /W3 /WX- /sdl /O2 /Oi /Oy- /GL /D WIN32 /D NDEBUG /D _CONSOLE /D _UNICODE /D UNICODE /D _CRT_SECURE_NO_WARNINGS /Gm- /EHsc /MD /GS /Gy /fp:precise /Zc:wchar_t /Zc:forScope /Yc"stdafx.h" /Fp"RELEASE\COMPILER_TESTE_V0.PCH" /Fo"RELEASE\\" /Fd"RELEASE\VC110.PDB" /Gd /TP /analyze- C:\USERS\MARCELO\DESKTOP\COMPILADOR\COMPILER_TESTE_V1.1_NOVO\COMPILER_TESTE_V0\STDAFX.CPP
^C:\USERS\MARCELO\DESKTOP\COMPILADOR\COMPILER_TESTE_V1.1_NOVO\COMPILER_TESTE_V0\BUFFER.CPP
/c /Zi /nologo /W3 /WX- /sdl /O2 /Oi /Oy- /GL /D WIN32 /D NDEBUG /D _CONSOLE /D _UNICODE /D UNICODE /D _CRT_SECURE_NO_WARNINGS /Gm- /EHsc /MD /GS /Gy /fp:precise /Zc:wchar_t /Zc:forScope /Yu"stdafx.h" /Fp"RELEASE\COMPILER_TESTE_V0.PCH" /Fo"RELEASE\\" /Fd"RELEASE\VC110.PDB" /Gd /TP /analyze- C:\USERS\MARCELO\DESKTOP\COMPILADOR\COMPILER_TESTE_V1.1_NOVO\COMPILER_TESTE_V0\BUFFER.CPP
^C:\USERS\MARCELO\DESKTOP\COMPILADOR\COMPILER_TESTE_V1.1_NOVO\COMPILER_TESTE_V0\CODEGEN.CPP
/c /Zi /nologo /W3 /WX- /sdl /O2 /Oi /Oy- /GL /D WIN32 /D NDEBUG /D _CONSOLE /D _UNICODE /D UNICODE /D _CRT_SECURE_NO_WARNINGS /Gm- /EHsc /MD /GS /Gy /fp:precise /Zc:wchar_t /Zc:forScope /Yu"stdafx.h" /Fp"RELEASE\COMPILER_TESTE_V0.PCH" /Fo"RELEASE\\" /Fd"RELEASE\VC110.PDB" /Gd /TP /analyze- C:\USERS\MARCELO\DESKTOP\COMPILADOR\COMPILER_TESTE_V1.1_NOVO\COMPILER_TESTE_V0\CODEGEN.CPP
^C:\USERS\MARCELO\DESKTOP\COMPILADOR\COMPILER_TESTE_V1.1_NOVO\COMPILER_TESTE_V0\COMMON.CPP
/c /Zi /nologo /W3 /WX- /sdl /O2 /Oi /Oy- /GL /D WIN32 /D NDEBUG /D _CONSOLE /D _UNICODE /D UNICODE /D _CRT_SECURE_NO_WARNINGS /Gm- /EHsc /MD /GS /Gy /fp:precise /Zc:wchar_t /Zc:forScope /Yu"stdafx.h" /Fp"RELEASE\COMPILER_TESTE_V0.PCH" /Fo"RELEASE\\" /Fd"RELEASE\VC110.PDB" /Gd /TP /analyze- C:\USERS\MARCELO\DESKTOP\COMPILADOR\COMPILER_TESTE_V1.1_NOVO\COMPILER_TESTE_V0\COMMON.CPP
^C:\USERS\MARCELO\DESKTOP\COMPILADOR\COMPILER_TESTE_V1.1_NOVO\COMPILER_TESTE_V0\COMPILER_TESTE_V0.CPP
/c /Zi /nologo /W3 /WX- /sdl /O2 /Oi /Oy- /GL /D WIN32 /D NDEBUG /D _CONSOLE /D _UNICODE /D UNICODE /D _CRT_SECURE_NO_WARNINGS /Gm- /EHsc /MD /GS /Gy /fp:precise /Zc:wchar_t /Zc:forScope /Yu"stdafx.h" /Fp"RELEASE\COMPILER_TESTE_V0.PCH" /Fo"RELEASE\\" /Fd"RELEASE\VC110.PDB" /Gd /TP /analyze- C:\USERS\MARCELO\DESKTOP\COMPILADOR\COMPILER_TESTE_V1.1_NOVO\COMPILER_TESTE_V0\COMPILER_TESTE_V0.CPP
^C:\USERS\MARCELO\DESKTOP\COMPILADOR\COMPILER_TESTE_V1.1_NOVO\COMPILER_TESTE_V0\COMPLIST.CPP
/c /Zi /nologo /W3 /WX- /sdl /O2 /Oi /Oy- /GL /D WIN32 /D NDEBUG /D _CONSOLE /D _UNICODE /D UNICODE /D _CRT_SECURE_NO_WARNINGS /Gm- /EHsc /MD /GS /Gy /fp:precise /Zc:wchar_t /Zc:forScope /Yu"stdafx.h" /Fp"RELEASE\COMPILER_TESTE_V0.PCH" /Fo"RELEASE\\" /Fd"RELEASE\VC110.PDB" /Gd /TP /analyze- C:\USERS\MARCELO\DESKTOP\COMPILADOR\COMPILER_TESTE_V1.1_NOVO\COMPILER_TESTE_V0\COMPLIST.CPP
^C:\USERS\MARCELO\DESKTOP\COMPILADOR\COMPILER_TESTE_V1.1_NOVO\COMPILER_TESTE_V0\DPLIST.CPP
/c /Zi /nologo /W3 /WX- /sdl /O2 /Oi /Oy- /GL /D WIN32 /D NDEBUG /D _CONSOLE /D _UNICODE /D UNICODE /D _CRT_SECURE_NO_WARNINGS /Gm- /EHsc /MD /GS /Gy /fp:precise /Zc:wchar_t /Zc:forScope /Yu"stdafx.h" /Fp"RELEASE\COMPILER_TESTE_V0.PCH" /Fo"RELEASE\\" /Fd"RELEASE\VC110.PDB" /Gd /TP /analyze- C:\USERS\MARCELO\DESKTOP\COMPILADOR\COMPILER_TESTE_V1.1_NOVO\COMPILER_TESTE_V0\DPLIST.CPP
^C:\USERS\MARCELO\DESKTOP\COMPILADOR\COMPILER_TESTE_V1.1_NOVO\COMPILER_TESTE_V0\EMITASM.CPP
/c /Zi /nologo /W3 /WX- /sdl /O2 /Oi /Oy- /GL /D WIN32 /D NDEBUG /D _CONSOLE /D _UNICODE /D UNICODE /D _CRT_SECURE_NO_WARNINGS /Gm- /EHsc /MD /GS /Gy /fp:precise /Zc:wchar_t /Zc:forScope /Yu"stdafx.h" /Fp"RELEASE\COMPILER_TESTE_V0.PCH" /Fo"RELEASE\\" /Fd"RELEASE\VC110.PDB" /Gd /TP /analyze- C:\USERS\MARCELO\DESKTOP\COMPILADOR\COMPILER_TESTE_V1.1_NOVO\COMPILER_TESTE_V0\EMITASM.CPP
^C:\USERS\MARCELO\DESKTOP\COMPILADOR\COMPILER_TESTE_V1.1_NOVO\COMPILER_TESTE_V0\EMITCODE.CPP
/c /Zi /nologo /W3 /WX- /sdl /O2 /Oi /Oy- /GL /D WIN32 /D NDEBUG /D _CONSOLE /D _UNICODE /D UNICODE /D _CRT_SECURE_NO_WARNINGS /Gm- /EHsc /MD /GS /Gy /fp:precise /Zc:wchar_t /Zc:forScope /Yu"stdafx.h" /Fp"RELEASE\COMPILER_TESTE_V0.PCH" /Fo"RELEASE\\" /Fd"RELEASE\VC110.PDB" /Gd /TP /analyze- C:\USERS\MARCELO\DESKTOP\COMPILADOR\COMPILER_TESTE_V1.1_NOVO\COMPILER_TESTE_V0\EMITCODE.CPP
^C:\USERS\MARCELO\DESKTOP\COMPILADOR\COMPILER_TESTE_V1.1_NOVO\COMPILER_TESTE_V0\EMITEXPR.CPP
/c /Zi /nologo /W3 /WX- /sdl /O2 /Oi /Oy- /GL /D WIN32 /D NDEBUG /D _CONSOLE /D _UNICODE /D UNICODE /D _CRT_SECURE_NO_WARNINGS /Gm- /EHsc /MD /GS /Gy /fp:precise /Zc:wchar_t /Zc:forScope /Yu"stdafx.h" /Fp"RELEASE\COMPILER_TESTE_V0.PCH" /Fo"RELEASE\\" /Fd"RELEASE\VC110.PDB" /Gd /TP /analyze- C:\USERS\MARCELO\DESKTOP\COMPILADOR\COMPILER_TESTE_V1.1_NOVO\COMPILER_TESTE_V0\EMITEXPR.CPP
^C:\USERS\MARCELO\DESKTOP\COMPILADOR\COMPILER_TESTE_V1.1_NOVO\COMPILER_TESTE_V0\EMITSRC.CPP
/c /Zi /nologo /W3 /WX- /sdl /O2 /Oi /Oy- /GL /D WIN32 /D NDEBUG /D _CONSOLE /D _UNICODE /D UNICODE /D _CRT_SECURE_NO_WARNINGS /Gm- /EHsc /MD /GS /Gy /fp:precise /Zc:wchar_t /Zc:forScope /Yu"stdafx.h" /Fp"RELEASE\COMPILER_TESTE_V0.PCH" /Fo"RELEASE\\" /Fd"RELEASE\VC110.PDB" /Gd /TP /analyze- C:\USERS\MARCELO\DESKTOP\COMPILADOR\COMPILER_TESTE_V1.1_NOVO\COMPILER_TESTE_V0\EMITSRC.CPP
^C:\USERS\MARCELO\DESKTOP\COMPILADOR\COMPILER_TESTE_V1.1_NOVO\COMPILER_TESTE_V0\ERROR.CPP
/c /Zi /nologo /W3 /WX- /sdl /O2 /Oi /Oy- /GL /D WIN32 /D NDEBUG /D _CONSOLE /D _UNICODE /D UNICODE /D _CRT_SECURE_NO_WARNINGS /Gm- /EHsc /MD /GS /Gy /fp:precise /Zc:wchar_t /Zc:forScope /Yu"stdafx.h" /Fp"RELEASE\COMPILER_TESTE_V0.PCH" /Fo"RELEASE\\" /Fd"RELEASE\VC110.PDB" /Gd /TP /analyze- C:\USERS\MARCELO\DESKTOP\COMPILADOR\COMPILER_TESTE_V1.1_NOVO\COMPILER_TESTE_V0\ERROR.CPP
^C:\USERS\MARCELO\DESKTOP\COMPILADOR\COMPILER_TESTE_V1.1_NOVO\COMPILER_TESTE_V0\EXEC.CPP
/c /Zi /nologo /W3 /WX- /sdl /O2 /Oi /Oy- /GL /D WIN32 /D NDEBUG /D _CONSOLE /D _UNICODE /D UNICODE /D _CRT_SECURE_NO_WARNINGS /Gm- /EHsc /MD /GS /Gy /fp:precise /Zc:wchar_t /Zc:forScope /Yu"stdafx.h" /Fp"RELEASE\COMPILER_TESTE_V0.PCH" /Fo"RELEASE\\" /Fd"RELEASE\VC110.PDB" /Gd /TP /analyze- C:\USERS\MARCELO\DESKTOP\COMPILADOR\COMPILER_TESTE_V1.1_NOVO\COMPILER_TESTE_V0\EXEC.CPP
^C:\USERS\MARCELO\DESKTOP\COMPILADOR\COMPILER_TESTE_V1.1_NOVO\COMPILER_TESTE_V0\EXECEXPR.CPP
/c /Zi /nologo /W3 /WX- /sdl /O2 /Oi /Oy- /GL /D WIN32 /D NDEBUG /D _CONSOLE /D _UNICODE /D UNICODE /D _CRT_SECURE_NO_WARNINGS /Gm- /EHsc /MD /GS /Gy /fp:precise /Zc:wchar_t /Zc:forScope /Yu"stdafx.h" /Fp"RELEASE\COMPILER_TESTE_V0.PCH" /Fo"RELEASE\\" /Fd"RELEASE\VC110.PDB" /Gd /TP /analyze- C:\USERS\MARCELO\DESKTOP\COMPILADOR\COMPILER_TESTE_V1.1_NOVO\COMPILER_TESTE_V0\EXECEXPR.CPP
^C:\USERS\MARCELO\DESKTOP\COMPILADOR\COMPILER_TESTE_V1.1_NOVO\COMPILER_TESTE_V0\EXECRTN.CPP
/c /Zi /nologo /W3 /WX- /sdl /O2 /Oi /Oy- /GL /D WIN32 /D NDEBUG /D _CONSOLE /D _UNICODE /D UNICODE /D _CRT_SECURE_NO_WARNINGS /Gm- /EHsc /MD /GS /Gy /fp:precise /Zc:wchar_t /Zc:forScope /Yu"stdafx.h" /Fp"RELEASE\COMPILER_TESTE_V0.PCH" /Fo"RELEASE\\" /Fd"RELEASE\VC110.PDB" /Gd /TP /analyze- C:\USERS\MARCELO\DESKTOP\COMPILADOR\COMPILER_TESTE_V1.1_NOVO\COMPILER_TESTE_V0\EXECRTN.CPP
^C:\USERS\MARCELO\DESKTOP\COMPILADOR\COMPILER_TESTE_V1.1_NOVO\COMPILER_TESTE_V0\EXECSTMT.CPP
/c /Zi /nologo /W3 /WX- /sdl /O2 /Oi /Oy- /GL /D WIN32 /D NDEBUG /D _CONSOLE /D _UNICODE /D UNICODE /D _CRT_SECURE_NO_WARNINGS /Gm- /EHsc /MD /GS /Gy /fp:precise /Zc:wchar_t /Zc:forScope /Yu"stdafx.h" /Fp"RELEASE\COMPILER_TESTE_V0.PCH" /Fo"RELEASE\\" /Fd"RELEASE\VC110.PDB" /Gd /TP /analyze- C:\USERS\MARCELO\DESKTOP\COMPILADOR\COMPILER_TESTE_V1.1_NOVO\COMPILER_TESTE_V0\EXECSTMT.CPP
^C:\USERS\MARCELO\DESKTOP\COMPILADOR\COMPILER_TESTE_V1.1_NOVO\COMPILER_TESTE_V0\ICODE.CPP
/c /Zi /nologo /W3 /WX- /sdl /O2 /Oi /Oy- /GL /D WIN32 /D NDEBUG /D _CONSOLE /D _UNICODE /D UNICODE /D _CRT_SECURE_NO_WARNINGS /Gm- /EHsc /MD /GS /Gy /fp:precise /Zc:wchar_t /Zc:forScope /Yu"stdafx.h" /Fp"RELEASE\COMPILER_TESTE_V0.PCH" /Fo"RELEASE\\" /Fd"RELEASE\VC110.PDB" /Gd /TP /analyze- C:\USERS\MARCELO\DESKTOP\COMPILADOR\COMPILER_TESTE_V1.1_NOVO\COMPILER_TESTE_V0\ICODE.CPP
^C:\USERS\MARCELO\DESKTOP\COMPILADOR\COMPILER_TESTE_V1.1_NOVO\COMPILER_TESTE_V0\LINKER.CPP
/c /Zi /nologo /W3 /WX- /sdl /O2 /Oi /Oy- /GL /D WIN32 /D NDEBUG /D _CONSOLE /D _UNICODE /D UNICODE /D _CRT_SECURE_NO_WARNINGS /Gm- /EHsc /MD /GS /Gy /fp:precise /Zc:wchar_t /Zc:forScope /Yu"stdafx.h" /Fp"RELEASE\COMPILER_TESTE_V0.PCH" /Fo"RELEASE\\" /Fd"RELEASE\VC110.PDB" /Gd /TP /analyze- C:\USERS\MARCELO\DESKTOP\COMPILADOR\COMPILER_TESTE_V1.1_NOVO\COMPILER_TESTE_V0\LINKER.CPP
^C:\USERS\MARCELO\DESKTOP\COMPILADOR\COMPILER_TESTE_V1.1_NOVO\COMPILER_TESTE_V0\PARSEDECL.CPP
/c /Zi /nologo /W3 /WX- /sdl /O2 /Oi /Oy- /GL /D WIN32 /D NDEBUG /D _CONSOLE /D _UNICODE /D UNICODE /D _CRT_SECURE_NO_WARNINGS /Gm- /EHsc /MD /GS /Gy /fp:precise /Zc:wchar_t /Zc:forScope /Yu"stdafx.h" /Fp"RELEASE\COMPILER_TESTE_V0.PCH" /Fo"RELEASE\\" /Fd"RELEASE\VC110.PDB" /Gd /TP /analyze- C:\USERS\MARCELO\DESKTOP\COMPILADOR\COMPILER_TESTE_V1.1_NOVO\COMPILER_TESTE_V0\PARSEDECL.CPP
^C:\USERS\MARCELO\DESKTOP\COMPILADOR\COMPILER_TESTE_V1.1_NOVO\COMPILER_TESTE_V0\PARSER.CPP
/c /Zi /nologo /W3 /WX- /sdl /O2 /Oi /Oy- /GL /D WIN32 /D NDEBUG /D _CONSOLE /D _UNICODE /D UNICODE /D _CRT_SECURE_NO_WARNINGS /Gm- /EHsc /MD /GS /Gy /fp:precise /Zc:wchar_t /Zc:forScope /Yu"stdafx.h" /Fp"RELEASE\COMPILER_TESTE_V0.PCH" /Fo"RELEASE\\" /Fd"RELEASE\VC110.PDB" /Gd /TP /analyze- C:\USERS\MARCELO\DESKTOP\COMPILADOR\COMPILER_TESTE_V1.1_NOVO\COMPILER_TESTE_V0\PARSER.CPP
^C:\USERS\MARCELO\DESKTOP\COMPILADOR\COMPILER_TESTE_V1.1_NOVO\COMPILER_TESTE_V0\PARSEXPR.CPP
/c /Zi /nologo /W3 /WX- /sdl /O2 /Oi /Oy- /GL /D WIN32 /D NDEBUG /D _CONSOLE /D _UNICODE /D UNICODE /D _CRT_SECURE_NO_WARNINGS /Gm- /EHsc /MD /GS /Gy /fp:precise /Zc:wchar_t /Zc:forScope /Yu"stdafx.h" /Fp"RELEASE\COMPILER_TESTE_V0.PCH" /Fo"RELEASE\\" /Fd"RELEASE\VC110.PDB" /Gd /TP /analyze- C:\USERS\MARCELO\DESKTOP\COMPILADOR\COMPILER_TESTE_V1.1_NOVO\COMPILER_TESTE_V0\PARSEXPR.CPP
^C:\USERS\MARCELO\DESKTOP\COMPILADOR\COMPILER_TESTE_V1.1_NOVO\COMPILER_TESTE_V0\PARSSTMT.CPP
/c /Zi /nologo /W3 /WX- /sdl /O2 /Oi /Oy- /GL /D WIN32 /D NDEBUG /D _CONSOLE /D _UNICODE /D UNICODE /D _CRT_SECURE_NO_WARNINGS /Gm- /EHsc /MD /GS /Gy /fp:precise /Zc:wchar_t /Zc:forScope /Yu"stdafx.h" /Fp"RELEASE\COMPILER_TESTE_V0.PCH" /Fo"RELEASE\\" /Fd"RELEASE\VC110.PDB" /Gd /TP /analyze- C:\USERS\MARCELO\DESKTOP\COMPILADOR\COMPILER_TESTE_V1.1_NOVO\COMPILER_TESTE_V0\PARSSTMT.CPP
^C:\USERS\MARCELO\DESKTOP\COMPILADOR\COMPILER_TESTE_V1.1_NOVO\COMPILER_TESTE_V0\SCANNER.CPP
/c /Zi /nologo /W3 /WX- /sdl /O2 /Oi /Oy- /GL /D WIN32 /D NDEBUG /D _CONSOLE /D _UNICODE /D UNICODE /D _CRT_SECURE_NO_WARNINGS /Gm- /EHsc /MD /GS /Gy /fp:precise /Zc:wchar_t /Zc:forScope /Yu"stdafx.h" /Fp"RELEASE\COMPILER_TESTE_V0.PCH" /Fo"RELEASE\\" /Fd"RELEASE\VC110.PDB" /Gd /TP /analyze- C:\USERS\MARCELO\DESKTOP\COMPILADOR\COMPILER_TESTE_V1.1_NOVO\COMPILER_TESTE_V0\SCANNER.CPP
^C:\USERS\MARCELO\DESKTOP\COMPILADOR\COMPILER_TESTE_V1.1_NOVO\COMPILER_TESTE_V0\SYMTAB.CPP
/c /Zi /nologo /W3 /WX- /sdl /O2 /Oi /Oy- /GL /D WIN32 /D NDEBUG /D _CONSOLE /D _UNICODE /D UNICODE /D _CRT_SECURE_NO_WARNINGS /Gm- /EHsc /MD /GS /Gy /fp:precise /Zc:wchar_t /Zc:forScope /Yu"stdafx.h" /Fp"RELEASE\COMPILER_TESTE_V0.PCH" /Fo"RELEASE\\" /Fd"RELEASE\VC110.PDB" /Gd /TP /analyze- C:\USERS\MARCELO\DESKTOP\COMPILADOR\COMPILER_TESTE_V1.1_NOVO\COMPILER_TESTE_V0\SYMTAB.CPP
^C:\USERS\MARCELO\DESKTOP\COMPILADOR\COMPILER_TESTE_V1.1_NOVO\COMPILER_TESTE_V0\TKNNUM.CPP
/c /Zi /nologo /W3 /WX- /sdl /O2 /Oi /Oy- /GL /D WIN32 /D NDEBUG /D _CONSOLE /D _UNICODE /D UNICODE /D _CRT_SECURE_NO_WARNINGS /Gm- /EHsc /MD /GS /Gy /fp:precise /Zc:wchar_t /Zc:forScope /Yu"stdafx.h" /Fp"RELEASE\COMPILER_TESTE_V0.PCH" /Fo"RELEASE\\" /Fd"RELEASE\VC110.PDB" /Gd /TP /analyze- C:\USERS\MARCELO\DESKTOP\COMPILADOR\COMPILER_TESTE_V1.1_NOVO\COMPILER_TESTE_V0\TKNNUM.CPP
^C:\USERS\MARCELO\DESKTOP\COMPILADOR\COMPILER_TESTE_V1.1_NOVO\COMPILER_TESTE_V0\TKNSTRSP.CPP
/c /Zi /nologo /W3 /WX- /sdl /O2 /Oi /Oy- /GL /D WIN32 /D NDEBUG /D _CONSOLE /D _UNICODE /D UNICODE /D _CRT_SECURE_NO_WARNINGS /Gm- /EHsc /MD /GS /Gy /fp:precise /Zc:wchar_t /Zc:forScope /Yu"stdafx.h" /Fp"RELEASE\COMPILER_TESTE_V0.PCH" /Fo"RELEASE\\" /Fd"RELEASE\VC110.PDB" /Gd /TP /analyze- C:\USERS\MARCELO\DESKTOP\COMPILADOR\COMPILER_TESTE_V1.1_NOVO\COMPILER_TESTE_V0\TKNSTRSP.CPP
^C:\USERS\MARCELO\DESKTOP\COMPILADOR\COMPILER_TESTE_V1.1_NOVO\COMPILER_TESTE_V0\TKNWORD.CPP
/c /Zi /nologo /W3 /WX- /sdl /O2 /Oi /Oy- /GL /D WIN32 /D NDEBUG /D _CONSOLE /D _UNICODE /D UNICODE /D _CRT_SECURE_NO_WARNINGS /Gm- /EHsc /MD /GS /Gy /fp:precise /Zc:wchar_t /Zc:forScope /Yu"stdafx.h" /Fp"RELEASE\COMPILER_TESTE_V0.PCH" /Fo"RELEASE\\" /Fd"RELEASE\VC110.PDB" /Gd /TP /analyze- C:\USERS\MARCELO\DESKTOP\COMPILADOR\COMPILER_TESTE_V1.1_NOVO\COMPILER_TESTE_V0\TKNWORD.CPP
^C:\USERS\MARCELO\DESKTOP\COMPILADOR\COMPILER_TESTE_V1.1_NOVO\COMPILER_TESTE_V0\TOKEN.CPP
/c /Zi /nologo /W3 /WX- /sdl /O2 /Oi /Oy- /GL /D WIN32 /D NDEBUG /D _CONSOLE /D _UNICODE /D UNICODE /D _CRT_SECURE_NO_WARNINGS /Gm- /EHsc /MD /GS /Gy /fp:precise /Zc:wchar_t /Zc:forScope /Yu"stdafx.h" /Fp"RELEASE\COMPILER_TESTE_V0.PCH" /Fo"RELEASE\\" /Fd"RELEASE\VC110.PDB" /Gd /TP /analyze- C:\USERS\MARCELO\DESKTOP\COMPILADOR\COMPILER_TESTE_V1.1_NOVO\COMPILER_TESTE_V0\TOKEN.CPP
^C:\USERS\MARCELO\DESKTOP\COMPILADOR\COMPILER_TESTE_V1.1_NOVO\COMPILER_TESTE_V0\TYPES.CPP
/c /Zi /nologo /W3 /WX- /sdl /O2 /Oi /Oy- /GL /D WIN32 /D NDEBUG /D _CONSOLE /D _UNICODE /D UNICODE /D _CRT_SECURE_NO_WARNINGS /Gm- /EHsc /MD /GS /Gy /fp:precise /Zc:wchar_t /Zc:forScope /Yu"stdafx.h" /Fp"RELEASE\COMPILER_TESTE_V0.PCH" /Fo"RELEASE\\" /Fd"RELEASE\VC110.PDB" /Gd /TP /analyze- C:\USERS\MARCELO\DESKTOP\COMPILADOR\COMPILER_TESTE_V1.1_NOVO\COMPILER_TESTE_V0\TYPES.CPP
^C:\USERS\MARCELO\DESKTOP\COMPILADOR\COMPILER_TESTE_V1.1_NOVO\COMPILER_TESTE_V0\EMITRTN.CPP
/c /Zi /nologo /W3 /WX- /sdl /O2 /Oi /Oy- /GL /D WIN32 /D NDEBUG /D _CONSOLE /D _UNICODE /D UNICODE /D _CRT_SECURE_NO_WARNINGS /Gm- /EHsc /MD /GS /Gy /fp:precise /Zc:wchar_t /Zc:forScope /Yu"stdafx.h" /Fp"RELEASE\COMPILER_TESTE_V0.PCH" /Fo"RELEASE\\" /Fd"RELEASE\VC110.PDB" /Gd /TP /analyze- C:\USERS\MARCELO\DESKTOP\COMPILADOR\COMPILER_TESTE_V1.1_NOVO\COMPILER_TESTE_V0\EMITRTN.CPP
^C:\USERS\MARCELO\DESKTOP\COMPILADOR\COMPILER_TESTE_V1.1_NOVO\COMPILER_TESTE_V0\EMITSTMT.CPP
/c /Zi /nologo /W3 /WX- /sdl /O2 /Oi /Oy- /GL /D WIN32 /D NDEBUG /D _CONSOLE /D _UNICODE /D UNICODE /D _CRT_SECURE_NO_WARNINGS /Gm- /EHsc /MD /GS /Gy /fp:precise /Zc:wchar_t /Zc:forScope /Yu"stdafx.h" /Fp"RELEASE\COMPILER_TESTE_V0.PCH" /Fo"RELEASE\\" /Fd"RELEASE\VC110.PDB" /Gd /TP /analyze- C:\USERS\MARCELO\DESKTOP\COMPILADOR\COMPILER_TESTE_V1.1_NOVO\COMPILER_TESTE_V0\EMITSTMT.CPP
