^C:\USERS\MARCELO\DESKTOP\COMPILADOR\COMPILER_TESTE_V1.1_NOVO\COMPILER_TESTE_V0\STDAFX.CPP
C:\PROGRAM FILES (X86)\MICROSOFT VISUAL STUDIO 11.0\VC\BIN\1033\CLUI.DLL
C:\WINDOWS\GLOBALIZATION\SORTING\SORTDEFAULT.NLS
C:\WINDOWS\SYSTEM32\RSAENH.DLL
C:\WINDOWS\SYSTEM32\TZRES.DLL
C:\PROGRAM FILES (X86)\MICROSOFT VISUAL STUDIO 11.0\COMMON7\IDE\MSPDBSRV.EXE
C:\USERS\MARCELO\DESKTOP\COMPILADOR\COMPILER_TESTE_V1.1_NOVO\COMPILER_TESTE_V0\STDAFX.H
C:\USERS\MARCELO\DESKTOP\COMPILADOR\COMPILER_TESTE_V1.1_NOVO\COMPILER_TESTE_V0\TARGETVER.H
C:\PROGRAM FILES (X86)\WINDOWS KITS\8.0\INCLUDE\SHARED\SDKDDKVER.H
C:\PROGRAM FILES (X86)\MICROSOFT VISUAL STUDIO 11.0\VC\INCLUDE\STDIO.H
C:\PROGRAM FILES (X86)\MICROSOFT VISUAL STUDIO 11.0\VC\INCLUDE\CRTDEFS.H
C:\PROGRAM FILES (X86)\MICROSOFT VISUAL STUDIO 11.0\VC\INCLUDE\SAL.H
C:\PROGRAM FILES (X86)\MICROSOFT VISUAL STUDIO 11.0\VC\INCLUDE\CONCURRENCYSAL.H
C:\PROGRAM FILES (X86)\MICROSOFT VISUAL STUDIO 11.0\VC\INCLUDE\VADEFS.H
C:\PROGRAM FILES (X86)\MICROSOFT VISUAL STUDIO 11.0\VC\INCLUDE\SWPRINTF.INL
C:\PROGRAM FILES (X86)\MICROSOFT VISUAL STUDIO 11.0\VC\INCLUDE\TCHAR.H
C:\PROGRAM FILES (X86)\MICROSOFT VISUAL STUDIO 11.0\VC\INCLUDE\WCHAR.H
C:\PROGRAM FILES (X86)\MICROSOFT VISUAL STUDIO 11.0\VC\INCLUDE\WTIME.INL
C:\PROGRAM FILES (X86)\MICROSOFT VISUAL STUDIO 11.0\VC\INCLUDE\STRING.H
C:\PROGRAM FILES (X86)\MICROSOFT VISUAL STUDIO 11.0\VC\INCLUDE\TIME.H
C:\PROGRAM FILES (X86)\MICROSOFT VISUAL STUDIO 11.0\VC\INCLUDE\TIME.INL
C:\PROGRAM FILES (X86)\MICROSOFT VISUAL STUDIO 11.0\VC\INCLUDE\MATH.H
C:\PROGRAM FILES (X86)\MICROSOFT VISUAL STUDIO 11.0\VC\INCLUDE\IOSTREAM
C:\PROGRAM FILES (X86)\MICROSOFT VISUAL STUDIO 11.0\VC\INCLUDE\ISTREAM
C:\PROGRAM FILES (X86)\MICROSOFT VISUAL STUDIO 11.0\VC\INCLUDE\OSTREAM
C:\PROGRAM FILES (X86)\MICROSOFT VISUAL STUDIO 11.0\VC\INCLUDE\IOS
C:\PROGRAM FILES (X86)\MICROSOFT VISUAL STUDIO 11.0\VC\INCLUDE\XLOCNUM
C:\PROGRAM FILES (X86)\MICROSOFT VISUAL STUDIO 11.0\VC\INCLUDE\CLIMITS
C:\PROGRAM FILES (X86)\MICROSOFT VISUAL STUDIO 11.0\VC\INCLUDE\YVALS.H
C:\PROGRAM FILES (X86)\MICROSOFT VISUAL STUDIO 11.0\VC\INCLUDE\XKEYCHECK.H
C:\PROGRAM FILES (X86)\MICROSOFT VISUAL STUDIO 11.0\VC\INCLUDE\USE_ANSI.H
C:\PROGRAM FILES (X86)\MICROSOFT VISUAL STUDIO 11.0\VC\INCLUDE\LIMITS.H
C:\PROGRAM FILES (X86)\MICROSOFT VISUAL STUDIO 11.0\VC\INCLUDE\CMATH
C:\PROGRAM FILES (X86)\MICROSOFT VISUAL STUDIO 11.0\VC\INCLUDE\XTGMATH.H
C:\PROGRAM FILES (X86)\MICROSOFT VISUAL STUDIO 11.0\VC\INCLUDE\XTR1COMMON
C:\PROGRAM FILES (X86)\MICROSOFT VISUAL STUDIO 11.0\VC\INCLUDE\CSTDIO
C:\PROGRAM FILES (X86)\MICROSOFT VISUAL STUDIO 11.0\VC\INCLUDE\CSTDLIB
C:\PROGRAM FILES (X86)\MICROSOFT VISUAL STUDIO 11.0\VC\INCLUDE\STDLIB.H
C:\PROGRAM FILES (X86)\MICROSOFT VISUAL STUDIO 11.0\VC\INCLUDE\STREAMBUF
C:\PROGRAM FILES (X86)\MICROSOFT VISUAL STUDIO 11.0\VC\INCLUDE\XIOSBASE
C:\PROGRAM FILES (X86)\MICROSOFT VISUAL STUDIO 11.0\VC\INCLUDE\XLOCALE
C:\PROGRAM FILES (X86)\MICROSOFT VISUAL STUDIO 11.0\VC\INCLUDE\CSTRING
C:\PROGRAM FILES (X86)\MICROSOFT VISUAL STUDIO 11.0\VC\INCLUDE\STDEXCEPT
C:\PROGRAM FILES (X86)\MICROSOFT VISUAL STUDIO 11.0\VC\INCLUDE\EXCEPTION
C:\PROGRAM FILES (X86)\MICROSOFT VISUAL STUDIO 11.0\VC\INCLUDE\XSTDDEF
C:\PROGRAM FILES (X86)\MICROSOFT VISUAL STUDIO 11.0\VC\INCLUDE\CSTDDEF
C:\PROGRAM FILES (X86)\MICROSOFT VISUAL STUDIO 11.0\VC\INCLUDE\STDDEF.H
C:\PROGRAM FILES (X86)\MICROSOFT VISUAL STUDIO 11.0\VC\INCLUDE\EH.H
C:\PROGRAM FILES (X86)\MICROSOFT VISUAL STUDIO 11.0\VC\INCLUDE\MALLOC.H
C:\PROGRAM FILES (X86)\MICROSOFT VISUAL STUDIO 11.0\VC\INCLUDE\XSTRING
C:\PROGRAM FILES (X86)\MICROSOFT VISUAL STUDIO 11.0\VC\INCLUDE\XMEMORY0
C:\PROGRAM FILES (X86)\MICROSOFT VISUAL STUDIO 11.0\VC\INCLUDE\LIMITS
C:\PROGRAM FILES (X86)\MICROSOFT VISUAL STUDIO 11.0\VC\INCLUDE\YMATH.H
C:\PROGRAM FILES (X86)\MICROSOFT VISUAL STUDIO 11.0\VC\INCLUDE\CFLOAT
C:\PROGRAM FILES (X86)\MICROSOFT VISUAL STUDIO 11.0\VC\INCLUDE\FLOAT.H
C:\PROGRAM FILES (X86)\MICROSOFT VISUAL STUDIO 11.0\VC\INCLUDE\CRTWRN.H
C:\PROGRAM FILES (X86)\MICROSOFT VISUAL STUDIO 11.0\VC\INCLUDE\CWCHAR
C:\PROGRAM FILES (X86)\MICROSOFT VISUAL STUDIO 11.0\VC\INCLUDE\NEW
C:\PROGRAM FILES (X86)\MICROSOFT VISUAL STUDIO 11.0\VC\INCLUDE\XUTILITY
C:\PROGRAM FILES (X86)\MICROSOFT VISUAL STUDIO 11.0\VC\INCLUDE\UTILITY
C:\PROGRAM FILES (X86)\MICROSOFT VISUAL STUDIO 11.0\VC\INCLUDE\IOSFWD
C:\PROGRAM FILES (X86)\MICROSOFT VISUAL STUDIO 11.0\VC\INCLUDE\CRTDBG.H
C:\PROGRAM FILES (X86)\MICROSOFT VISUAL STUDIO 11.0\VC\INCLUDE\TYPE_TRAITS
C:\PROGRAM FILES (X86)\MICROSOFT VISUAL STUDIO 11.0\VC\INCLUDE\XREFWRAP
C:\PROGRAM FILES (X86)\MICROSOFT VISUAL STUDIO 11.0\VC\INCLUDE\XATOMIC0.H
C:\PROGRAM FILES (X86)\MICROSOFT VISUAL STUDIO 11.0\VC\INCLUDE\INTRIN.H
C:\PROGRAM FILES (X86)\MICROSOFT VISUAL STUDIO 11.0\VC\INCLUDE\SETJMP.H
C:\PROGRAM FILES (X86)\MICROSOFT VISUAL STUDIO 11.0\VC\INCLUDE\IMMINTRIN.H
C:\PROGRAM FILES (X86)\MICROSOFT VISUAL STUDIO 11.0\VC\INCLUDE\WMMINTRIN.H
C:\PROGRAM FILES (X86)\MICROSOFT VISUAL STUDIO 11.0\VC\INCLUDE\NMMINTRIN.H
C:\PROGRAM FILES (X86)\MICROSOFT VISUAL STUDIO 11.0\VC\INCLUDE\SMMINTRIN.H
C:\PROGRAM FILES (X86)\MICROSOFT VISUAL STUDIO 11.0\VC\INCLUDE\TMMINTRIN.H
C:\PROGRAM FILES (X86)\MICROSOFT VISUAL STUDIO 11.0\VC\INCLUDE\PMMINTRIN.H
C:\PROGRAM FILES (X86)\MICROSOFT VISUAL STUDIO 11.0\VC\INCLUDE\EMMINTRIN.H
C:\PROGRAM FILES (X86)\MICROSOFT VISUAL STUDIO 11.0\VC\INCLUDE\XMMINTRIN.H
C:\PROGRAM FILES (X86)\MICROSOFT VISUAL STUDIO 11.0\VC\INCLUDE\MMINTRIN.H
C:\PROGRAM FILES (X86)\MICROSOFT VISUAL STUDIO 11.0\VC\INCLUDE\AMMINTRIN.H
C:\PROGRAM FILES (X86)\MICROSOFT VISUAL STUDIO 11.0\VC\INCLUDE\MM3DNOW.H
C:\PROGRAM FILES (X86)\MICROSOFT VISUAL STUDIO 11.0\VC\INCLUDE\TYPEINFO
C:\PROGRAM FILES (X86)\MICROSOFT VISUAL STUDIO 11.0\VC\INCLUDE\XLOCINFO
C:\PROGRAM FILES (X86)\MICROSOFT VISUAL STUDIO 11.0\VC\INCLUDE\XLOCINFO.H
C:\PROGRAM FILES (X86)\MICROSOFT VISUAL STUDIO 11.0\VC\INCLUDE\CTYPE.H
C:\PROGRAM FILES (X86)\MICROSOFT VISUAL STUDIO 11.0\VC\INCLUDE\LOCALE.H
C:\PROGRAM FILES (X86)\MICROSOFT VISUAL STUDIO 11.0\VC\INCLUDE\XDEBUG
C:\PROGRAM FILES (X86)\MICROSOFT VISUAL STUDIO 11.0\VC\INCLUDE\XFACET
C:\PROGRAM FILES (X86)\MICROSOFT VISUAL STUDIO 11.0\VC\INCLUDE\SYSTEM_ERROR
C:\PROGRAM FILES (X86)\MICROSOFT VISUAL STUDIO 11.0\VC\INCLUDE\CERRNO
C:\PROGRAM FILES (X86)\MICROSOFT VISUAL STUDIO 11.0\VC\INCLUDE\ERRNO.H
C:\PROGRAM FILES (X86)\MICROSOFT VISUAL STUDIO 11.0\VC\INCLUDE\SHARE.H
C:\PROGRAM FILES (X86)\MICROSOFT VISUAL STUDIO 11.0\VC\INCLUDE\FSTREAM
C:\USERS\MARCELO\DESKTOP\COMPILADOR\COMPILER_TESTE_V1.1_NOVO\COMPILER_TESTE_V0\DEFINES.H
C:\USERS\MARCELO\DESKTOP\COMPILADOR\COMPILER_TESTE_V1.1_NOVO\COMPILER_TESTE_V0\DPLIST.H
C:\USERS\MARCELO\DESKTOP\COMPILADOR\COMPILER_TESTE_V1.1_NOVO\COMPILER_TESTE_V0\SYMTAB.H
C:\USERS\MARCELO\DESKTOP\COMPILADOR\COMPILER_TESTE_V1.1_NOVO\COMPILER_TESTE_V0\MISC.H
C:\USERS\MARCELO\DESKTOP\COMPILADOR\COMPILER_TESTE_V1.1_NOVO\COMPILER_TESTE_V0\ERROR.H
C:\USERS\MARCELO\DESKTOP\COMPILADOR\COMPILER_TESTE_V1.1_NOVO\COMPILER_TESTE_V0\TYPES.H
C:\USERS\MARCELO\DESKTOP\COMPILADOR\COMPILER_TESTE_V1.1_NOVO\COMPILER_TESTE_V0\BUFFER.H
C:\USERS\MARCELO\DESKTOP\COMPILADOR\COMPILER_TESTE_V1.1_NOVO\COMPILER_TESTE_V0\COMMON.H
C:\USERS\MARCELO\DESKTOP\COMPILADOR\COMPILER_TESTE_V1.1_NOVO\COMPILER_TESTE_V0\TOKEN.H
C:\USERS\MARCELO\DESKTOP\COMPILADOR\COMPILER_TESTE_V1.1_NOVO\COMPILER_TESTE_V0\SCANNER.H
C:\USERS\MARCELO\DESKTOP\COMPILADOR\COMPILER_TESTE_V1.1_NOVO\COMPILER_TESTE_V0\COMPLIST.H
C:\USERS\MARCELO\DESKTOP\COMPILADOR\COMPILER_TESTE_V1.1_NOVO\COMPILER_TESTE_V0\ICODE.H
C:\USERS\MARCELO\DESKTOP\COMPILADOR\COMPILER_TESTE_V1.1_NOVO\COMPILER_TESTE_V0\PARSER.H
C:\USERS\MARCELO\DESKTOP\COMPILADOR\COMPILER_TESTE_V1.1_NOVO\COMPILER_TESTE_V0\MACHINE.H
C:\USERS\MARCELO\DESKTOP\COMPILADOR\COMPILER_TESTE_V1.1_NOVO\COMPILER_TESTE_V0\BACKEND.H
C:\USERS\MARCELO\DESKTOP\COMPILADOR\COMPILER_TESTE_V1.1_NOVO\COMPILER_TESTE_V0\EXEC.H
C:\USERS\MARCELO\DESKTOP\COMPILADOR\COMPILER_TESTE_V1.1_NOVO\COMPILER_TESTE_V0\CODEGEN.H
^C:\USERS\MARCELO\DESKTOP\COMPILADOR\COMPILER_TESTE_V1.1_NOVO\COMPILER_TESTE_V0\BUFFER.CPP
C:\USERS\MARCELO\DESKTOP\COMPILADOR\COMPILER_TESTE_V1.1_NOVO\COMPILER_TESTE_V0\RELEASE\COMPILER_TESTE_V0.PCH
^C:\USERS\MARCELO\DESKTOP\COMPILADOR\COMPILER_TESTE_V1.1_NOVO\COMPILER_TESTE_V0\CODEGEN.CPP
C:\USERS\MARCELO\DESKTOP\COMPILADOR\COMPILER_TESTE_V1.1_NOVO\COMPILER_TESTE_V0\RELEASE\COMPILER_TESTE_V0.PCH
^C:\USERS\MARCELO\DESKTOP\COMPILADOR\COMPILER_TESTE_V1.1_NOVO\COMPILER_TESTE_V0\COMMON.CPP
C:\USERS\MARCELO\DESKTOP\COMPILADOR\COMPILER_TESTE_V1.1_NOVO\COMPILER_TESTE_V0\RELEASE\COMPILER_TESTE_V0.PCH
^C:\USERS\MARCELO\DESKTOP\COMPILADOR\COMPILER_TESTE_V1.1_NOVO\COMPILER_TESTE_V0\COMPILER_TESTE_V0.CPP
C:\USERS\MARCELO\DESKTOP\COMPILADOR\COMPILER_TESTE_V1.1_NOVO\COMPILER_TESTE_V0\RELEASE\COMPILER_TESTE_V0.PCH
^C:\USERS\MARCELO\DESKTOP\COMPILADOR\COMPILER_TESTE_V1.1_NOVO\COMPILER_TESTE_V0\COMPLIST.CPP
C:\USERS\MARCELO\DESKTOP\COMPILADOR\COMPILER_TESTE_V1.1_NOVO\COMPILER_TESTE_V0\RELEASE\COMPILER_TESTE_V0.PCH
^C:\USERS\MARCELO\DESKTOP\COMPILADOR\COMPILER_TESTE_V1.1_NOVO\COMPILER_TESTE_V0\DPLIST.CPP
C:\USERS\MARCELO\DESKTOP\COMPILADOR\COMPILER_TESTE_V1.1_NOVO\COMPILER_TESTE_V0\RELEASE\COMPILER_TESTE_V0.PCH
^C:\USERS\MARCELO\DESKTOP\COMPILADOR\COMPILER_TESTE_V1.1_NOVO\COMPILER_TESTE_V0\EMITASM.CPP
C:\USERS\MARCELO\DESKTOP\COMPILADOR\COMPILER_TESTE_V1.1_NOVO\COMPILER_TESTE_V0\RELEASE\COMPILER_TESTE_V0.PCH
^C:\USERS\MARCELO\DESKTOP\COMPILADOR\COMPILER_TESTE_V1.1_NOVO\COMPILER_TESTE_V0\EMITCODE.CPP
C:\USERS\MARCELO\DESKTOP\COMPILADOR\COMPILER_TESTE_V1.1_NOVO\COMPILER_TESTE_V0\RELEASE\COMPILER_TESTE_V0.PCH
^C:\USERS\MARCELO\DESKTOP\COMPILADOR\COMPILER_TESTE_V1.1_NOVO\COMPILER_TESTE_V0\EMITEXPR.CPP
C:\USERS\MARCELO\DESKTOP\COMPILADOR\COMPILER_TESTE_V1.1_NOVO\COMPILER_TESTE_V0\RELEASE\COMPILER_TESTE_V0.PCH
^C:\USERS\MARCELO\DESKTOP\COMPILADOR\COMPILER_TESTE_V1.1_NOVO\COMPILER_TESTE_V0\EMITSRC.CPP
C:\USERS\MARCELO\DESKTOP\COMPILADOR\COMPILER_TESTE_V1.1_NOVO\COMPILER_TESTE_V0\RELEASE\COMPILER_TESTE_V0.PCH
^C:\USERS\MARCELO\DESKTOP\COMPILADOR\COMPILER_TESTE_V1.1_NOVO\COMPILER_TESTE_V0\ERROR.CPP
C:\USERS\MARCELO\DESKTOP\COMPILADOR\COMPILER_TESTE_V1.1_NOVO\COMPILER_TESTE_V0\RELEASE\COMPILER_TESTE_V0.PCH
^C:\USERS\MARCELO\DESKTOP\COMPILADOR\COMPILER_TESTE_V1.1_NOVO\COMPILER_TESTE_V0\EXEC.CPP
C:\USERS\MARCELO\DESKTOP\COMPILADOR\COMPILER_TESTE_V1.1_NOVO\COMPILER_TESTE_V0\RELEASE\COMPILER_TESTE_V0.PCH
^C:\USERS\MARCELO\DESKTOP\COMPILADOR\COMPILER_TESTE_V1.1_NOVO\COMPILER_TESTE_V0\EXECEXPR.CPP
C:\USERS\MARCELO\DESKTOP\COMPILADOR\COMPILER_TESTE_V1.1_NOVO\COMPILER_TESTE_V0\RELEASE\COMPILER_TESTE_V0.PCH
^C:\USERS\MARCELO\DESKTOP\COMPILADOR\COMPILER_TESTE_V1.1_NOVO\COMPILER_TESTE_V0\EXECRTN.CPP
C:\USERS\MARCELO\DESKTOP\COMPILADOR\COMPILER_TESTE_V1.1_NOVO\COMPILER_TESTE_V0\RELEASE\COMPILER_TESTE_V0.PCH
^C:\USERS\MARCELO\DESKTOP\COMPILADOR\COMPILER_TESTE_V1.1_NOVO\COMPILER_TESTE_V0\EXECSTMT.CPP
C:\USERS\MARCELO\DESKTOP\COMPILADOR\COMPILER_TESTE_V1.1_NOVO\COMPILER_TESTE_V0\RELEASE\COMPILER_TESTE_V0.PCH
^C:\USERS\MARCELO\DESKTOP\COMPILADOR\COMPILER_TESTE_V1.1_NOVO\COMPILER_TESTE_V0\ICODE.CPP
C:\USERS\MARCELO\DESKTOP\COMPILADOR\COMPILER_TESTE_V1.1_NOVO\COMPILER_TESTE_V0\RELEASE\COMPILER_TESTE_V0.PCH
^C:\USERS\MARCELO\DESKTOP\COMPILADOR\COMPILER_TESTE_V1.1_NOVO\COMPILER_TESTE_V0\LINKER.CPP
C:\USERS\MARCELO\DESKTOP\COMPILADOR\COMPILER_TESTE_V1.1_NOVO\COMPILER_TESTE_V0\RELEASE\COMPILER_TESTE_V0.PCH
^C:\USERS\MARCELO\DESKTOP\COMPILADOR\COMPILER_TESTE_V1.1_NOVO\COMPILER_TESTE_V0\PARSEDECL.CPP
C:\USERS\MARCELO\DESKTOP\COMPILADOR\COMPILER_TESTE_V1.1_NOVO\COMPILER_TESTE_V0\RELEASE\COMPILER_TESTE_V0.PCH
^C:\USERS\MARCELO\DESKTOP\COMPILADOR\COMPILER_TESTE_V1.1_NOVO\COMPILER_TESTE_V0\PARSER.CPP
C:\USERS\MARCELO\DESKTOP\COMPILADOR\COMPILER_TESTE_V1.1_NOVO\COMPILER_TESTE_V0\RELEASE\COMPILER_TESTE_V0.PCH
^C:\USERS\MARCELO\DESKTOP\COMPILADOR\COMPILER_TESTE_V1.1_NOVO\COMPILER_TESTE_V0\PARSEXPR.CPP
C:\USERS\MARCELO\DESKTOP\COMPILADOR\COMPILER_TESTE_V1.1_NOVO\COMPILER_TESTE_V0\RELEASE\COMPILER_TESTE_V0.PCH
^C:\USERS\MARCELO\DESKTOP\COMPILADOR\COMPILER_TESTE_V1.1_NOVO\COMPILER_TESTE_V0\PARSSTMT.CPP
C:\USERS\MARCELO\DESKTOP\COMPILADOR\COMPILER_TESTE_V1.1_NOVO\COMPILER_TESTE_V0\RELEASE\COMPILER_TESTE_V0.PCH
^C:\USERS\MARCELO\DESKTOP\COMPILADOR\COMPILER_TESTE_V1.1_NOVO\COMPILER_TESTE_V0\SCANNER.CPP
C:\USERS\MARCELO\DESKTOP\COMPILADOR\COMPILER_TESTE_V1.1_NOVO\COMPILER_TESTE_V0\RELEASE\COMPILER_TESTE_V0.PCH
^C:\USERS\MARCELO\DESKTOP\COMPILADOR\COMPILER_TESTE_V1.1_NOVO\COMPILER_TESTE_V0\SYMTAB.CPP
C:\USERS\MARCELO\DESKTOP\COMPILADOR\COMPILER_TESTE_V1.1_NOVO\COMPILER_TESTE_V0\RELEASE\COMPILER_TESTE_V0.PCH
^C:\USERS\MARCELO\DESKTOP\COMPILADOR\COMPILER_TESTE_V1.1_NOVO\COMPILER_TESTE_V0\TKNNUM.CPP
C:\USERS\MARCELO\DESKTOP\COMPILADOR\COMPILER_TESTE_V1.1_NOVO\COMPILER_TESTE_V0\RELEASE\COMPILER_TESTE_V0.PCH
^C:\USERS\MARCELO\DESKTOP\COMPILADOR\COMPILER_TESTE_V1.1_NOVO\COMPILER_TESTE_V0\TKNSTRSP.CPP
C:\USERS\MARCELO\DESKTOP\COMPILADOR\COMPILER_TESTE_V1.1_NOVO\COMPILER_TESTE_V0\RELEASE\COMPILER_TESTE_V0.PCH
^C:\USERS\MARCELO\DESKTOP\COMPILADOR\COMPILER_TESTE_V1.1_NOVO\COMPILER_TESTE_V0\TKNWORD.CPP
C:\USERS\MARCELO\DESKTOP\COMPILADOR\COMPILER_TESTE_V1.1_NOVO\COMPILER_TESTE_V0\RELEASE\COMPILER_TESTE_V0.PCH
^C:\USERS\MARCELO\DESKTOP\COMPILADOR\COMPILER_TESTE_V1.1_NOVO\COMPILER_TESTE_V0\TOKEN.CPP
C:\USERS\MARCELO\DESKTOP\COMPILADOR\COMPILER_TESTE_V1.1_NOVO\COMPILER_TESTE_V0\RELEASE\COMPILER_TESTE_V0.PCH
^C:\USERS\MARCELO\DESKTOP\COMPILADOR\COMPILER_TESTE_V1.1_NOVO\COMPILER_TESTE_V0\TYPES.CPP
C:\USERS\MARCELO\DESKTOP\COMPILADOR\COMPILER_TESTE_V1.1_NOVO\COMPILER_TESTE_V0\RELEASE\COMPILER_TESTE_V0.PCH
^C:\USERS\MARCELO\DESKTOP\COMPILADOR\COMPILER_TESTE_V1.1_NOVO\COMPILER_TESTE_V0\EMITRTN.CPP
C:\PROGRAM FILES (X86)\MICROSOFT VISUAL STUDIO 11.0\VC\BIN\1033\CLUI.DLL
C:\WINDOWS\GLOBALIZATION\SORTING\SORTDEFAULT.NLS
C:\WINDOWS\SYSTEM32\RSAENH.DLL
C:\WINDOWS\SYSTEM32\TZRES.DLL
C:\USERS\MARCELO\DESKTOP\COMPILADOR\COMPILER_TESTE_V1.1_NOVO\COMPILER_TESTE_V0\RELEASE\COMPILER_TESTE_V0.PCH
^C:\USERS\MARCELO\DESKTOP\COMPILADOR\COMPILER_TESTE_V1.1_NOVO\COMPILER_TESTE_V0\EMITSTMT.CPP
C:\PROGRAM FILES (X86)\MICROSOFT VISUAL STUDIO 11.0\VC\BIN\1033\CLUI.DLL
C:\WINDOWS\GLOBALIZATION\SORTING\SORTDEFAULT.NLS
C:\WINDOWS\SYSTEM32\RSAENH.DLL
C:\WINDOWS\SYSTEM32\TZRES.DLL
C:\USERS\MARCELO\DESKTOP\COMPILADOR\COMPILER_TESTE_V1.1_NOVO\COMPILER_TESTE_V0\RELEASE\COMPILER_TESTE_V0.PCH
