memory_initialization_radix=16;
memory_initialization_vector=
00000000,
0000019A,
000001FE,
00000262,
00000004,
00000005,
00000006,
00000007,
00000008,
00000009,
0000000a,
0000000b,
0000000c,
0000000d,
0000000e,
0000000f,
00000010,
00000011,
000001FE,
00000262,
00000004,
00000005,
00000006,
00000007,
00000008,
00000009,
0000000a,
0000000b,
0000000c,
0000000d,
0000000e,
0000000f;