^\\PSF\HOME\DESKTOP\COMPILADOR\COMPILER_TESTE_V1.1_NOVO\COMPILER_TESTE_V0\STDAFX.CPP
/c /ZI /nologo /W3 /WX- /sdl /Od /Oy- /D WIN32 /D _DEBUG /D _CONSOLE /D _UNICODE /D UNICODE /D _CRT_SECURE_NO_WARNINGS /Gm /EHsc /RTC1 /MDd /GS /fp:precise /Zc:wchar_t /Zc:forScope /Yc"stdafx.h" /Fp"DEBUG\COMPILER_TESTE_V0.PCH" /Fo"DEBUG\\" /Fd"DEBUG\VC120.PDB" /Gd /TP /analyze- \\PSF\HOME\DESKTOP\COMPILADOR\COMPILER_TESTE_V1.1_NOVO\COMPILER_TESTE_V0\STDAFX.CPP
^\\PSF\HOME\DESKTOP\COMPILADOR\COMPILER_TESTE_V1.1_NOVO\COMPILER_TESTE_V0\BUFFER.CPP
/c /ZI /nologo /W3 /WX- /sdl /Od /Oy- /D WIN32 /D _DEBUG /D _CONSOLE /D _UNICODE /D UNICODE /D _CRT_SECURE_NO_WARNINGS /Gm /EHsc /RTC1 /MDd /GS /fp:precise /Zc:wchar_t /Zc:forScope /Yu"stdafx.h" /Fp"DEBUG\COMPILER_TESTE_V0.PCH" /Fo"DEBUG\\" /Fd"DEBUG\VC120.PDB" /Gd /TP /analyze- \\PSF\HOME\DESKTOP\COMPILADOR\COMPILER_TESTE_V1.1_NOVO\COMPILER_TESTE_V0\BUFFER.CPP
^\\PSF\HOME\DESKTOP\COMPILADOR\COMPILER_TESTE_V1.1_NOVO\COMPILER_TESTE_V0\CODEGEN.CPP
/c /ZI /nologo /W3 /WX- /sdl /Od /Oy- /D WIN32 /D _DEBUG /D _CONSOLE /D _UNICODE /D UNICODE /D _CRT_SECURE_NO_WARNINGS /Gm /EHsc /RTC1 /MDd /GS /fp:precise /Zc:wchar_t /Zc:forScope /Yu"stdafx.h" /Fp"DEBUG\COMPILER_TESTE_V0.PCH" /Fo"DEBUG\\" /Fd"DEBUG\VC120.PDB" /Gd /TP /analyze- \\PSF\HOME\DESKTOP\COMPILADOR\COMPILER_TESTE_V1.1_NOVO\COMPILER_TESTE_V0\CODEGEN.CPP
^\\PSF\HOME\DESKTOP\COMPILADOR\COMPILER_TESTE_V1.1_NOVO\COMPILER_TESTE_V0\COMMON.CPP
/c /ZI /nologo /W3 /WX- /sdl /Od /Oy- /D WIN32 /D _DEBUG /D _CONSOLE /D _UNICODE /D UNICODE /D _CRT_SECURE_NO_WARNINGS /Gm /EHsc /RTC1 /MDd /GS /fp:precise /Zc:wchar_t /Zc:forScope /Yu"stdafx.h" /Fp"DEBUG\COMPILER_TESTE_V0.PCH" /Fo"DEBUG\\" /Fd"DEBUG\VC120.PDB" /Gd /TP /analyze- \\PSF\HOME\DESKTOP\COMPILADOR\COMPILER_TESTE_V1.1_NOVO\COMPILER_TESTE_V0\COMMON.CPP
^\\PSF\HOME\DESKTOP\COMPILADOR\COMPILER_TESTE_V1.1_NOVO\COMPILER_TESTE_V0\COMPILER_TESTE_V0.CPP
/c /ZI /nologo /W3 /WX- /sdl /Od /Oy- /D WIN32 /D _DEBUG /D _CONSOLE /D _UNICODE /D UNICODE /D _CRT_SECURE_NO_WARNINGS /Gm /EHsc /RTC1 /MDd /GS /fp:precise /Zc:wchar_t /Zc:forScope /Yu"stdafx.h" /Fp"DEBUG\COMPILER_TESTE_V0.PCH" /Fo"DEBUG\\" /Fd"DEBUG\VC120.PDB" /Gd /TP /analyze- \\PSF\HOME\DESKTOP\COMPILADOR\COMPILER_TESTE_V1.1_NOVO\COMPILER_TESTE_V0\COMPILER_TESTE_V0.CPP
^\\PSF\HOME\DESKTOP\COMPILADOR\COMPILER_TESTE_V1.1_NOVO\COMPILER_TESTE_V0\COMPLIST.CPP
/c /ZI /nologo /W3 /WX- /sdl /Od /Oy- /D WIN32 /D _DEBUG /D _CONSOLE /D _UNICODE /D UNICODE /D _CRT_SECURE_NO_WARNINGS /Gm /EHsc /RTC1 /MDd /GS /fp:precise /Zc:wchar_t /Zc:forScope /Yu"stdafx.h" /Fp"DEBUG\COMPILER_TESTE_V0.PCH" /Fo"DEBUG\\" /Fd"DEBUG\VC120.PDB" /Gd /TP /analyze- \\PSF\HOME\DESKTOP\COMPILADOR\COMPILER_TESTE_V1.1_NOVO\COMPILER_TESTE_V0\COMPLIST.CPP
^\\PSF\HOME\DESKTOP\COMPILADOR\COMPILER_TESTE_V1.1_NOVO\COMPILER_TESTE_V0\DPLIST.CPP
/c /ZI /nologo /W3 /WX- /sdl /Od /Oy- /D WIN32 /D _DEBUG /D _CONSOLE /D _UNICODE /D UNICODE /D _CRT_SECURE_NO_WARNINGS /Gm /EHsc /RTC1 /MDd /GS /fp:precise /Zc:wchar_t /Zc:forScope /Yu"stdafx.h" /Fp"DEBUG\COMPILER_TESTE_V0.PCH" /Fo"DEBUG\\" /Fd"DEBUG\VC120.PDB" /Gd /TP /analyze- \\PSF\HOME\DESKTOP\COMPILADOR\COMPILER_TESTE_V1.1_NOVO\COMPILER_TESTE_V0\DPLIST.CPP
^\\PSF\HOME\DESKTOP\COMPILADOR\COMPILER_TESTE_V1.1_NOVO\COMPILER_TESTE_V0\EMITASM.CPP
/c /ZI /nologo /W3 /WX- /sdl /Od /Oy- /D WIN32 /D _DEBUG /D _CONSOLE /D _UNICODE /D UNICODE /D _CRT_SECURE_NO_WARNINGS /Gm /EHsc /RTC1 /MDd /GS /fp:precise /Zc:wchar_t /Zc:forScope /Yu"stdafx.h" /Fp"DEBUG\COMPILER_TESTE_V0.PCH" /Fo"DEBUG\\" /Fd"DEBUG\VC120.PDB" /Gd /TP /analyze- \\PSF\HOME\DESKTOP\COMPILADOR\COMPILER_TESTE_V1.1_NOVO\COMPILER_TESTE_V0\EMITASM.CPP
^\\PSF\HOME\DESKTOP\COMPILADOR\COMPILER_TESTE_V1.1_NOVO\COMPILER_TESTE_V0\EMITCODE.CPP
/c /ZI /nologo /W3 /WX- /sdl /Od /Oy- /D WIN32 /D _DEBUG /D _CONSOLE /D _UNICODE /D UNICODE /D _CRT_SECURE_NO_WARNINGS /Gm /EHsc /RTC1 /MDd /GS /fp:precise /Zc:wchar_t /Zc:forScope /Yu"stdafx.h" /Fp"DEBUG\COMPILER_TESTE_V0.PCH" /Fo"DEBUG\\" /Fd"DEBUG\VC120.PDB" /Gd /TP /analyze- \\PSF\HOME\DESKTOP\COMPILADOR\COMPILER_TESTE_V1.1_NOVO\COMPILER_TESTE_V0\EMITCODE.CPP
^\\PSF\HOME\DESKTOP\COMPILADOR\COMPILER_TESTE_V1.1_NOVO\COMPILER_TESTE_V0\EMITEXPR.CPP
/c /ZI /nologo /W3 /WX- /sdl /Od /Oy- /D WIN32 /D _DEBUG /D _CONSOLE /D _UNICODE /D UNICODE /D _CRT_SECURE_NO_WARNINGS /Gm /EHsc /RTC1 /MDd /GS /fp:precise /Zc:wchar_t /Zc:forScope /Yu"stdafx.h" /Fp"DEBUG\COMPILER_TESTE_V0.PCH" /Fo"DEBUG\\" /Fd"DEBUG\VC120.PDB" /Gd /TP /analyze- \\PSF\HOME\DESKTOP\COMPILADOR\COMPILER_TESTE_V1.1_NOVO\COMPILER_TESTE_V0\EMITEXPR.CPP
^\\PSF\HOME\DESKTOP\COMPILADOR\COMPILER_TESTE_V1.1_NOVO\COMPILER_TESTE_V0\EMITRTN.CPP
/c /ZI /nologo /W3 /WX- /sdl /Od /Oy- /D WIN32 /D _DEBUG /D _CONSOLE /D _UNICODE /D UNICODE /D _CRT_SECURE_NO_WARNINGS /Gm /EHsc /RTC1 /MDd /GS /fp:precise /Zc:wchar_t /Zc:forScope /Yu"stdafx.h" /Fp"DEBUG\COMPILER_TESTE_V0.PCH" /Fo"DEBUG\\" /Fd"DEBUG\VC120.PDB" /Gd /TP /analyze- \\PSF\HOME\DESKTOP\COMPILADOR\COMPILER_TESTE_V1.1_NOVO\COMPILER_TESTE_V0\EMITRTN.CPP
^\\PSF\HOME\DESKTOP\COMPILADOR\COMPILER_TESTE_V1.1_NOVO\COMPILER_TESTE_V0\EMITSRC.CPP
/c /ZI /nologo /W3 /WX- /sdl /Od /Oy- /D WIN32 /D _DEBUG /D _CONSOLE /D _UNICODE /D UNICODE /D _CRT_SECURE_NO_WARNINGS /Gm /EHsc /RTC1 /MDd /GS /fp:precise /Zc:wchar_t /Zc:forScope /Yu"stdafx.h" /Fp"DEBUG\COMPILER_TESTE_V0.PCH" /Fo"DEBUG\\" /Fd"DEBUG\VC120.PDB" /Gd /TP /analyze- \\PSF\HOME\DESKTOP\COMPILADOR\COMPILER_TESTE_V1.1_NOVO\COMPILER_TESTE_V0\EMITSRC.CPP
^\\PSF\HOME\DESKTOP\COMPILADOR\COMPILER_TESTE_V1.1_NOVO\COMPILER_TESTE_V0\EMITSTMT.CPP
/c /ZI /nologo /W3 /WX- /sdl /Od /Oy- /D WIN32 /D _DEBUG /D _CONSOLE /D _UNICODE /D UNICODE /D _CRT_SECURE_NO_WARNINGS /Gm /EHsc /RTC1 /MDd /GS /fp:precise /Zc:wchar_t /Zc:forScope /Yu"stdafx.h" /Fp"DEBUG\COMPILER_TESTE_V0.PCH" /Fo"DEBUG\\" /Fd"DEBUG\VC120.PDB" /Gd /TP /analyze- \\PSF\HOME\DESKTOP\COMPILADOR\COMPILER_TESTE_V1.1_NOVO\COMPILER_TESTE_V0\EMITSTMT.CPP
^\\PSF\HOME\DESKTOP\COMPILADOR\COMPILER_TESTE_V1.1_NOVO\COMPILER_TESTE_V0\ERROR.CPP
/c /ZI /nologo /W3 /WX- /sdl /Od /Oy- /D WIN32 /D _DEBUG /D _CONSOLE /D _UNICODE /D UNICODE /D _CRT_SECURE_NO_WARNINGS /Gm /EHsc /RTC1 /MDd /GS /fp:precise /Zc:wchar_t /Zc:forScope /Yu"stdafx.h" /Fp"DEBUG\COMPILER_TESTE_V0.PCH" /Fo"DEBUG\\" /Fd"DEBUG\VC120.PDB" /Gd /TP /analyze- \\PSF\HOME\DESKTOP\COMPILADOR\COMPILER_TESTE_V1.1_NOVO\COMPILER_TESTE_V0\ERROR.CPP
^\\PSF\HOME\DESKTOP\COMPILADOR\COMPILER_TESTE_V1.1_NOVO\COMPILER_TESTE_V0\EXEC.CPP
/c /ZI /nologo /W3 /WX- /sdl /Od /Oy- /D WIN32 /D _DEBUG /D _CONSOLE /D _UNICODE /D UNICODE /D _CRT_SECURE_NO_WARNINGS /Gm /EHsc /RTC1 /MDd /GS /fp:precise /Zc:wchar_t /Zc:forScope /Yu"stdafx.h" /Fp"DEBUG\COMPILER_TESTE_V0.PCH" /Fo"DEBUG\\" /Fd"DEBUG\VC120.PDB" /Gd /TP /analyze- \\PSF\HOME\DESKTOP\COMPILADOR\COMPILER_TESTE_V1.1_NOVO\COMPILER_TESTE_V0\EXEC.CPP
^\\PSF\HOME\DESKTOP\COMPILADOR\COMPILER_TESTE_V1.1_NOVO\COMPILER_TESTE_V0\EXECEXPR.CPP
/c /ZI /nologo /W3 /WX- /sdl /Od /Oy- /D WIN32 /D _DEBUG /D _CONSOLE /D _UNICODE /D UNICODE /D _CRT_SECURE_NO_WARNINGS /Gm /EHsc /RTC1 /MDd /GS /fp:precise /Zc:wchar_t /Zc:forScope /Yu"stdafx.h" /Fp"DEBUG\COMPILER_TESTE_V0.PCH" /Fo"DEBUG\\" /Fd"DEBUG\VC120.PDB" /Gd /TP /analyze- \\PSF\HOME\DESKTOP\COMPILADOR\COMPILER_TESTE_V1.1_NOVO\COMPILER_TESTE_V0\EXECEXPR.CPP
^\\PSF\HOME\DESKTOP\COMPILADOR\COMPILER_TESTE_V1.1_NOVO\COMPILER_TESTE_V0\EXECRTN.CPP
/c /ZI /nologo /W3 /WX- /sdl /Od /Oy- /D WIN32 /D _DEBUG /D _CONSOLE /D _UNICODE /D UNICODE /D _CRT_SECURE_NO_WARNINGS /Gm /EHsc /RTC1 /MDd /GS /fp:precise /Zc:wchar_t /Zc:forScope /Yu"stdafx.h" /Fp"DEBUG\COMPILER_TESTE_V0.PCH" /Fo"DEBUG\\" /Fd"DEBUG\VC120.PDB" /Gd /TP /analyze- \\PSF\HOME\DESKTOP\COMPILADOR\COMPILER_TESTE_V1.1_NOVO\COMPILER_TESTE_V0\EXECRTN.CPP
^\\PSF\HOME\DESKTOP\COMPILADOR\COMPILER_TESTE_V1.1_NOVO\COMPILER_TESTE_V0\EXECSTMT.CPP
/c /ZI /nologo /W3 /WX- /sdl /Od /Oy- /D WIN32 /D _DEBUG /D _CONSOLE /D _UNICODE /D UNICODE /D _CRT_SECURE_NO_WARNINGS /Gm /EHsc /RTC1 /MDd /GS /fp:precise /Zc:wchar_t /Zc:forScope /Yu"stdafx.h" /Fp"DEBUG\COMPILER_TESTE_V0.PCH" /Fo"DEBUG\\" /Fd"DEBUG\VC120.PDB" /Gd /TP /analyze- \\PSF\HOME\DESKTOP\COMPILADOR\COMPILER_TESTE_V1.1_NOVO\COMPILER_TESTE_V0\EXECSTMT.CPP
^\\PSF\HOME\DESKTOP\COMPILADOR\COMPILER_TESTE_V1.1_NOVO\COMPILER_TESTE_V0\ICODE.CPP
/c /ZI /nologo /W3 /WX- /sdl /Od /Oy- /D WIN32 /D _DEBUG /D _CONSOLE /D _UNICODE /D UNICODE /D _CRT_SECURE_NO_WARNINGS /Gm /EHsc /RTC1 /MDd /GS /fp:precise /Zc:wchar_t /Zc:forScope /Yu"stdafx.h" /Fp"DEBUG\COMPILER_TESTE_V0.PCH" /Fo"DEBUG\\" /Fd"DEBUG\VC120.PDB" /Gd /TP /analyze- \\PSF\HOME\DESKTOP\COMPILADOR\COMPILER_TESTE_V1.1_NOVO\COMPILER_TESTE_V0\ICODE.CPP
^\\PSF\HOME\DESKTOP\COMPILADOR\COMPILER_TESTE_V1.1_NOVO\COMPILER_TESTE_V0\LINKER.CPP
/c /ZI /nologo /W3 /WX- /sdl /Od /Oy- /D WIN32 /D _DEBUG /D _CONSOLE /D _UNICODE /D UNICODE /D _CRT_SECURE_NO_WARNINGS /Gm /EHsc /RTC1 /MDd /GS /fp:precise /Zc:wchar_t /Zc:forScope /Yu"stdafx.h" /Fp"DEBUG\COMPILER_TESTE_V0.PCH" /Fo"DEBUG\\" /Fd"DEBUG\VC120.PDB" /Gd /TP /analyze- \\PSF\HOME\DESKTOP\COMPILADOR\COMPILER_TESTE_V1.1_NOVO\COMPILER_TESTE_V0\LINKER.CPP
^\\PSF\HOME\DESKTOP\COMPILADOR\COMPILER_TESTE_V1.1_NOVO\COMPILER_TESTE_V0\PARSEDECL.CPP
/c /ZI /nologo /W3 /WX- /sdl /Od /Oy- /D WIN32 /D _DEBUG /D _CONSOLE /D _UNICODE /D UNICODE /D _CRT_SECURE_NO_WARNINGS /Gm /EHsc /RTC1 /MDd /GS /fp:precise /Zc:wchar_t /Zc:forScope /Yu"stdafx.h" /Fp"DEBUG\COMPILER_TESTE_V0.PCH" /Fo"DEBUG\\" /Fd"DEBUG\VC120.PDB" /Gd /TP /analyze- \\PSF\HOME\DESKTOP\COMPILADOR\COMPILER_TESTE_V1.1_NOVO\COMPILER_TESTE_V0\PARSEDECL.CPP
^\\PSF\HOME\DESKTOP\COMPILADOR\COMPILER_TESTE_V1.1_NOVO\COMPILER_TESTE_V0\PARSER.CPP
/c /ZI /nologo /W3 /WX- /sdl /Od /Oy- /D WIN32 /D _DEBUG /D _CONSOLE /D _UNICODE /D UNICODE /D _CRT_SECURE_NO_WARNINGS /Gm /EHsc /RTC1 /MDd /GS /fp:precise /Zc:wchar_t /Zc:forScope /Yu"stdafx.h" /Fp"DEBUG\COMPILER_TESTE_V0.PCH" /Fo"DEBUG\\" /Fd"DEBUG\VC120.PDB" /Gd /TP /analyze- \\PSF\HOME\DESKTOP\COMPILADOR\COMPILER_TESTE_V1.1_NOVO\COMPILER_TESTE_V0\PARSER.CPP
^\\PSF\HOME\DESKTOP\COMPILADOR\COMPILER_TESTE_V1.1_NOVO\COMPILER_TESTE_V0\PARSEXPR.CPP
/c /ZI /nologo /W3 /WX- /sdl /Od /Oy- /D WIN32 /D _DEBUG /D _CONSOLE /D _UNICODE /D UNICODE /D _CRT_SECURE_NO_WARNINGS /Gm /EHsc /RTC1 /MDd /GS /fp:precise /Zc:wchar_t /Zc:forScope /Yu"stdafx.h" /Fp"DEBUG\COMPILER_TESTE_V0.PCH" /Fo"DEBUG\\" /Fd"DEBUG\VC120.PDB" /Gd /TP /analyze- \\PSF\HOME\DESKTOP\COMPILADOR\COMPILER_TESTE_V1.1_NOVO\COMPILER_TESTE_V0\PARSEXPR.CPP
^\\PSF\HOME\DESKTOP\COMPILADOR\COMPILER_TESTE_V1.1_NOVO\COMPILER_TESTE_V0\PARSSTMT.CPP
/c /ZI /nologo /W3 /WX- /sdl /Od /Oy- /D WIN32 /D _DEBUG /D _CONSOLE /D _UNICODE /D UNICODE /D _CRT_SECURE_NO_WARNINGS /Gm /EHsc /RTC1 /MDd /GS /fp:precise /Zc:wchar_t /Zc:forScope /Yu"stdafx.h" /Fp"DEBUG\COMPILER_TESTE_V0.PCH" /Fo"DEBUG\\" /Fd"DEBUG\VC120.PDB" /Gd /TP /analyze- \\PSF\HOME\DESKTOP\COMPILADOR\COMPILER_TESTE_V1.1_NOVO\COMPILER_TESTE_V0\PARSSTMT.CPP
^\\PSF\HOME\DESKTOP\COMPILADOR\COMPILER_TESTE_V1.1_NOVO\COMPILER_TESTE_V0\SCANNER.CPP
/c /ZI /nologo /W3 /WX- /sdl /Od /Oy- /D WIN32 /D _DEBUG /D _CONSOLE /D _UNICODE /D UNICODE /D _CRT_SECURE_NO_WARNINGS /Gm /EHsc /RTC1 /MDd /GS /fp:precise /Zc:wchar_t /Zc:forScope /Yu"stdafx.h" /Fp"DEBUG\COMPILER_TESTE_V0.PCH" /Fo"DEBUG\\" /Fd"DEBUG\VC120.PDB" /Gd /TP /analyze- \\PSF\HOME\DESKTOP\COMPILADOR\COMPILER_TESTE_V1.1_NOVO\COMPILER_TESTE_V0\SCANNER.CPP
^\\PSF\HOME\DESKTOP\COMPILADOR\COMPILER_TESTE_V1.1_NOVO\COMPILER_TESTE_V0\SYMTAB.CPP
/c /ZI /nologo /W3 /WX- /sdl /Od /Oy- /D WIN32 /D _DEBUG /D _CONSOLE /D _UNICODE /D UNICODE /D _CRT_SECURE_NO_WARNINGS /Gm /EHsc /RTC1 /MDd /GS /fp:precise /Zc:wchar_t /Zc:forScope /Yu"stdafx.h" /Fp"DEBUG\COMPILER_TESTE_V0.PCH" /Fo"DEBUG\\" /Fd"DEBUG\VC120.PDB" /Gd /TP /analyze- \\PSF\HOME\DESKTOP\COMPILADOR\COMPILER_TESTE_V1.1_NOVO\COMPILER_TESTE_V0\SYMTAB.CPP
^\\PSF\HOME\DESKTOP\COMPILADOR\COMPILER_TESTE_V1.1_NOVO\COMPILER_TESTE_V0\TKNNUM.CPP
/c /ZI /nologo /W3 /WX- /sdl /Od /Oy- /D WIN32 /D _DEBUG /D _CONSOLE /D _UNICODE /D UNICODE /D _CRT_SECURE_NO_WARNINGS /Gm /EHsc /RTC1 /MDd /GS /fp:precise /Zc:wchar_t /Zc:forScope /Yu"stdafx.h" /Fp"DEBUG\COMPILER_TESTE_V0.PCH" /Fo"DEBUG\\" /Fd"DEBUG\VC120.PDB" /Gd /TP /analyze- \\PSF\HOME\DESKTOP\COMPILADOR\COMPILER_TESTE_V1.1_NOVO\COMPILER_TESTE_V0\TKNNUM.CPP
^\\PSF\HOME\DESKTOP\COMPILADOR\COMPILER_TESTE_V1.1_NOVO\COMPILER_TESTE_V0\TKNSTRSP.CPP
/c /ZI /nologo /W3 /WX- /sdl /Od /Oy- /D WIN32 /D _DEBUG /D _CONSOLE /D _UNICODE /D UNICODE /D _CRT_SECURE_NO_WARNINGS /Gm /EHsc /RTC1 /MDd /GS /fp:precise /Zc:wchar_t /Zc:forScope /Yu"stdafx.h" /Fp"DEBUG\COMPILER_TESTE_V0.PCH" /Fo"DEBUG\\" /Fd"DEBUG\VC120.PDB" /Gd /TP /analyze- \\PSF\HOME\DESKTOP\COMPILADOR\COMPILER_TESTE_V1.1_NOVO\COMPILER_TESTE_V0\TKNSTRSP.CPP
^\\PSF\HOME\DESKTOP\COMPILADOR\COMPILER_TESTE_V1.1_NOVO\COMPILER_TESTE_V0\TKNWORD.CPP
/c /ZI /nologo /W3 /WX- /sdl /Od /Oy- /D WIN32 /D _DEBUG /D _CONSOLE /D _UNICODE /D UNICODE /D _CRT_SECURE_NO_WARNINGS /Gm /EHsc /RTC1 /MDd /GS /fp:precise /Zc:wchar_t /Zc:forScope /Yu"stdafx.h" /Fp"DEBUG\COMPILER_TESTE_V0.PCH" /Fo"DEBUG\\" /Fd"DEBUG\VC120.PDB" /Gd /TP /analyze- \\PSF\HOME\DESKTOP\COMPILADOR\COMPILER_TESTE_V1.1_NOVO\COMPILER_TESTE_V0\TKNWORD.CPP
^\\PSF\HOME\DESKTOP\COMPILADOR\COMPILER_TESTE_V1.1_NOVO\COMPILER_TESTE_V0\TOKEN.CPP
/c /ZI /nologo /W3 /WX- /sdl /Od /Oy- /D WIN32 /D _DEBUG /D _CONSOLE /D _UNICODE /D UNICODE /D _CRT_SECURE_NO_WARNINGS /Gm /EHsc /RTC1 /MDd /GS /fp:precise /Zc:wchar_t /Zc:forScope /Yu"stdafx.h" /Fp"DEBUG\COMPILER_TESTE_V0.PCH" /Fo"DEBUG\\" /Fd"DEBUG\VC120.PDB" /Gd /TP /analyze- \\PSF\HOME\DESKTOP\COMPILADOR\COMPILER_TESTE_V1.1_NOVO\COMPILER_TESTE_V0\TOKEN.CPP
^\\PSF\HOME\DESKTOP\COMPILADOR\COMPILER_TESTE_V1.1_NOVO\COMPILER_TESTE_V0\TYPES.CPP
/c /ZI /nologo /W3 /WX- /sdl /Od /Oy- /D WIN32 /D _DEBUG /D _CONSOLE /D _UNICODE /D UNICODE /D _CRT_SECURE_NO_WARNINGS /Gm /EHsc /RTC1 /MDd /GS /fp:precise /Zc:wchar_t /Zc:forScope /Yu"stdafx.h" /Fp"DEBUG\COMPILER_TESTE_V0.PCH" /Fo"DEBUG\\" /Fd"DEBUG\VC120.PDB" /Gd /TP /analyze- \\PSF\HOME\DESKTOP\COMPILADOR\COMPILER_TESTE_V1.1_NOVO\COMPILER_TESTE_V0\TYPES.CPP
^C:\USERS\FRANCISCO DIAS\DESKTOP\EMBEDDED SYSTEMS\SOURCE\COMPILER\RONDA 4\COMPILER_TESTE_V1.1_NOVO\COMPILER_TESTE_V0\STDAFX.CPP
/c /ZI /nologo /W3 /WX- /sdl /Od /Oy- /D WIN32 /D _DEBUG /D _CONSOLE /D _UNICODE /D UNICODE /D _CRT_SECURE_NO_WARNINGS /Gm /EHsc /RTC1 /MDd /GS /fp:precise /Zc:wchar_t /Zc:forScope /Yc"stdafx.h" /Fp"DEBUG\COMPILER_TESTE_V0.PCH" /Fo"DEBUG\\" /Fd"DEBUG\VC120.PDB" /Gd /TP /analyze- C:\USERS\FRANCISCO DIAS\DESKTOP\EMBEDDED SYSTEMS\SOURCE\COMPILER\RONDA 4\COMPILER_TESTE_V1.1_NOVO\COMPILER_TESTE_V0\STDAFX.CPP
^C:\USERS\FRANCISCO DIAS\DESKTOP\EMBEDDED SYSTEMS\SOURCE\COMPILER\RONDA 4\COMPILER_TESTE_V1.1_NOVO\COMPILER_TESTE_V0\BUFFER.CPP
/c /ZI /nologo /W3 /WX- /sdl /Od /Oy- /D WIN32 /D _DEBUG /D _CONSOLE /D _UNICODE /D UNICODE /D _CRT_SECURE_NO_WARNINGS /Gm /EHsc /RTC1 /MDd /GS /fp:precise /Zc:wchar_t /Zc:forScope /Yu"stdafx.h" /Fp"DEBUG\COMPILER_TESTE_V0.PCH" /Fo"DEBUG\\" /Fd"DEBUG\VC120.PDB" /Gd /TP /analyze- C:\USERS\FRANCISCO DIAS\DESKTOP\EMBEDDED SYSTEMS\SOURCE\COMPILER\RONDA 4\COMPILER_TESTE_V1.1_NOVO\COMPILER_TESTE_V0\BUFFER.CPP
^C:\USERS\FRANCISCO DIAS\DESKTOP\EMBEDDED SYSTEMS\SOURCE\COMPILER\RONDA 4\COMPILER_TESTE_V1.1_NOVO\COMPILER_TESTE_V0\CODEGEN.CPP
/c /ZI /nologo /W3 /WX- /sdl /Od /Oy- /D WIN32 /D _DEBUG /D _CONSOLE /D _UNICODE /D UNICODE /D _CRT_SECURE_NO_WARNINGS /Gm /EHsc /RTC1 /MDd /GS /fp:precise /Zc:wchar_t /Zc:forScope /Yu"stdafx.h" /Fp"DEBUG\COMPILER_TESTE_V0.PCH" /Fo"DEBUG\\" /Fd"DEBUG\VC120.PDB" /Gd /TP /analyze- C:\USERS\FRANCISCO DIAS\DESKTOP\EMBEDDED SYSTEMS\SOURCE\COMPILER\RONDA 4\COMPILER_TESTE_V1.1_NOVO\COMPILER_TESTE_V0\CODEGEN.CPP
^C:\USERS\FRANCISCO DIAS\DESKTOP\EMBEDDED SYSTEMS\SOURCE\COMPILER\RONDA 4\COMPILER_TESTE_V1.1_NOVO\COMPILER_TESTE_V0\COMMON.CPP
/c /ZI /nologo /W3 /WX- /sdl /Od /Oy- /D WIN32 /D _DEBUG /D _CONSOLE /D _UNICODE /D UNICODE /D _CRT_SECURE_NO_WARNINGS /Gm /EHsc /RTC1 /MDd /GS /fp:precise /Zc:wchar_t /Zc:forScope /Yu"stdafx.h" /Fp"DEBUG\COMPILER_TESTE_V0.PCH" /Fo"DEBUG\\" /Fd"DEBUG\VC120.PDB" /Gd /TP /analyze- C:\USERS\FRANCISCO DIAS\DESKTOP\EMBEDDED SYSTEMS\SOURCE\COMPILER\RONDA 4\COMPILER_TESTE_V1.1_NOVO\COMPILER_TESTE_V0\COMMON.CPP
^C:\USERS\FRANCISCO DIAS\DESKTOP\EMBEDDED SYSTEMS\SOURCE\COMPILER\RONDA 4\COMPILER_TESTE_V1.1_NOVO\COMPILER_TESTE_V0\COMPILER_TESTE_V0.CPP
/c /ZI /nologo /W3 /WX- /sdl /Od /Oy- /D WIN32 /D _DEBUG /D _CONSOLE /D _UNICODE /D UNICODE /D _CRT_SECURE_NO_WARNINGS /Gm /EHsc /RTC1 /MDd /GS /fp:precise /Zc:wchar_t /Zc:forScope /Yu"stdafx.h" /Fp"DEBUG\COMPILER_TESTE_V0.PCH" /Fo"DEBUG\\" /Fd"DEBUG\VC120.PDB" /Gd /TP /analyze- C:\USERS\FRANCISCO DIAS\DESKTOP\EMBEDDED SYSTEMS\SOURCE\COMPILER\RONDA 4\COMPILER_TESTE_V1.1_NOVO\COMPILER_TESTE_V0\COMPILER_TESTE_V0.CPP
^C:\USERS\FRANCISCO DIAS\DESKTOP\EMBEDDED SYSTEMS\SOURCE\COMPILER\RONDA 4\COMPILER_TESTE_V1.1_NOVO\COMPILER_TESTE_V0\COMPLIST.CPP
/c /ZI /nologo /W3 /WX- /sdl /Od /Oy- /D WIN32 /D _DEBUG /D _CONSOLE /D _UNICODE /D UNICODE /D _CRT_SECURE_NO_WARNINGS /Gm /EHsc /RTC1 /MDd /GS /fp:precise /Zc:wchar_t /Zc:forScope /Yu"stdafx.h" /Fp"DEBUG\COMPILER_TESTE_V0.PCH" /Fo"DEBUG\\" /Fd"DEBUG\VC120.PDB" /Gd /TP /analyze- C:\USERS\FRANCISCO DIAS\DESKTOP\EMBEDDED SYSTEMS\SOURCE\COMPILER\RONDA 4\COMPILER_TESTE_V1.1_NOVO\COMPILER_TESTE_V0\COMPLIST.CPP
^C:\USERS\FRANCISCO DIAS\DESKTOP\EMBEDDED SYSTEMS\SOURCE\COMPILER\RONDA 4\COMPILER_TESTE_V1.1_NOVO\COMPILER_TESTE_V0\DPLIST.CPP
/c /ZI /nologo /W3 /WX- /sdl /Od /Oy- /D WIN32 /D _DEBUG /D _CONSOLE /D _UNICODE /D UNICODE /D _CRT_SECURE_NO_WARNINGS /Gm /EHsc /RTC1 /MDd /GS /fp:precise /Zc:wchar_t /Zc:forScope /Yu"stdafx.h" /Fp"DEBUG\COMPILER_TESTE_V0.PCH" /Fo"DEBUG\\" /Fd"DEBUG\VC120.PDB" /Gd /TP /analyze- C:\USERS\FRANCISCO DIAS\DESKTOP\EMBEDDED SYSTEMS\SOURCE\COMPILER\RONDA 4\COMPILER_TESTE_V1.1_NOVO\COMPILER_TESTE_V0\DPLIST.CPP
^C:\USERS\FRANCISCO DIAS\DESKTOP\EMBEDDED SYSTEMS\SOURCE\COMPILER\RONDA 4\COMPILER_TESTE_V1.1_NOVO\COMPILER_TESTE_V0\EMITASM.CPP
/c /ZI /nologo /W3 /WX- /sdl /Od /Oy- /D WIN32 /D _DEBUG /D _CONSOLE /D _UNICODE /D UNICODE /D _CRT_SECURE_NO_WARNINGS /Gm /EHsc /RTC1 /MDd /GS /fp:precise /Zc:wchar_t /Zc:forScope /Yu"stdafx.h" /Fp"DEBUG\COMPILER_TESTE_V0.PCH" /Fo"DEBUG\\" /Fd"DEBUG\VC120.PDB" /Gd /TP /analyze- C:\USERS\FRANCISCO DIAS\DESKTOP\EMBEDDED SYSTEMS\SOURCE\COMPILER\RONDA 4\COMPILER_TESTE_V1.1_NOVO\COMPILER_TESTE_V0\EMITASM.CPP
^C:\USERS\FRANCISCO DIAS\DESKTOP\EMBEDDED SYSTEMS\SOURCE\COMPILER\RONDA 4\COMPILER_TESTE_V1.1_NOVO\COMPILER_TESTE_V0\EMITCODE.CPP
/c /ZI /nologo /W3 /WX- /sdl /Od /Oy- /D WIN32 /D _DEBUG /D _CONSOLE /D _UNICODE /D UNICODE /D _CRT_SECURE_NO_WARNINGS /Gm /EHsc /RTC1 /MDd /GS /fp:precise /Zc:wchar_t /Zc:forScope /Yu"stdafx.h" /Fp"DEBUG\COMPILER_TESTE_V0.PCH" /Fo"DEBUG\\" /Fd"DEBUG\VC120.PDB" /Gd /TP /analyze- C:\USERS\FRANCISCO DIAS\DESKTOP\EMBEDDED SYSTEMS\SOURCE\COMPILER\RONDA 4\COMPILER_TESTE_V1.1_NOVO\COMPILER_TESTE_V0\EMITCODE.CPP
^C:\USERS\FRANCISCO DIAS\DESKTOP\EMBEDDED SYSTEMS\SOURCE\COMPILER\RONDA 4\COMPILER_TESTE_V1.1_NOVO\COMPILER_TESTE_V0\EMITEXPR.CPP
/c /ZI /nologo /W3 /WX- /sdl /Od /Oy- /D WIN32 /D _DEBUG /D _CONSOLE /D _UNICODE /D UNICODE /D _CRT_SECURE_NO_WARNINGS /Gm /EHsc /RTC1 /MDd /GS /fp:precise /Zc:wchar_t /Zc:forScope /Yu"stdafx.h" /Fp"DEBUG\COMPILER_TESTE_V0.PCH" /Fo"DEBUG\\" /Fd"DEBUG\VC120.PDB" /Gd /TP /analyze- C:\USERS\FRANCISCO DIAS\DESKTOP\EMBEDDED SYSTEMS\SOURCE\COMPILER\RONDA 4\COMPILER_TESTE_V1.1_NOVO\COMPILER_TESTE_V0\EMITEXPR.CPP
^C:\USERS\FRANCISCO DIAS\DESKTOP\EMBEDDED SYSTEMS\SOURCE\COMPILER\RONDA 4\COMPILER_TESTE_V1.1_NOVO\COMPILER_TESTE_V0\EMITRTN.CPP
/c /ZI /nologo /W3 /WX- /sdl /Od /Oy- /D WIN32 /D _DEBUG /D _CONSOLE /D _UNICODE /D UNICODE /D _CRT_SECURE_NO_WARNINGS /Gm /EHsc /RTC1 /MDd /GS /fp:precise /Zc:wchar_t /Zc:forScope /Yu"stdafx.h" /Fp"DEBUG\COMPILER_TESTE_V0.PCH" /Fo"DEBUG\\" /Fd"DEBUG\VC120.PDB" /Gd /TP /analyze- C:\USERS\FRANCISCO DIAS\DESKTOP\EMBEDDED SYSTEMS\SOURCE\COMPILER\RONDA 4\COMPILER_TESTE_V1.1_NOVO\COMPILER_TESTE_V0\EMITRTN.CPP
^C:\USERS\FRANCISCO DIAS\DESKTOP\EMBEDDED SYSTEMS\SOURCE\COMPILER\RONDA 4\COMPILER_TESTE_V1.1_NOVO\COMPILER_TESTE_V0\EMITSRC.CPP
/c /ZI /nologo /W3 /WX- /sdl /Od /Oy- /D WIN32 /D _DEBUG /D _CONSOLE /D _UNICODE /D UNICODE /D _CRT_SECURE_NO_WARNINGS /Gm /EHsc /RTC1 /MDd /GS /fp:precise /Zc:wchar_t /Zc:forScope /Yu"stdafx.h" /Fp"DEBUG\COMPILER_TESTE_V0.PCH" /Fo"DEBUG\\" /Fd"DEBUG\VC120.PDB" /Gd /TP /analyze- C:\USERS\FRANCISCO DIAS\DESKTOP\EMBEDDED SYSTEMS\SOURCE\COMPILER\RONDA 4\COMPILER_TESTE_V1.1_NOVO\COMPILER_TESTE_V0\EMITSRC.CPP
^C:\USERS\FRANCISCO DIAS\DESKTOP\EMBEDDED SYSTEMS\SOURCE\COMPILER\RONDA 4\COMPILER_TESTE_V1.1_NOVO\COMPILER_TESTE_V0\EMITSTMT.CPP
/c /ZI /nologo /W3 /WX- /sdl /Od /Oy- /D WIN32 /D _DEBUG /D _CONSOLE /D _UNICODE /D UNICODE /D _CRT_SECURE_NO_WARNINGS /Gm /EHsc /RTC1 /MDd /GS /fp:precise /Zc:wchar_t /Zc:forScope /Yu"stdafx.h" /Fp"DEBUG\COMPILER_TESTE_V0.PCH" /Fo"DEBUG\\" /Fd"DEBUG\VC120.PDB" /Gd /TP /analyze- C:\USERS\FRANCISCO DIAS\DESKTOP\EMBEDDED SYSTEMS\SOURCE\COMPILER\RONDA 4\COMPILER_TESTE_V1.1_NOVO\COMPILER_TESTE_V0\EMITSTMT.CPP
^C:\USERS\FRANCISCO DIAS\DESKTOP\EMBEDDED SYSTEMS\SOURCE\COMPILER\RONDA 4\COMPILER_TESTE_V1.1_NOVO\COMPILER_TESTE_V0\ERROR.CPP
/c /ZI /nologo /W3 /WX- /sdl /Od /Oy- /D WIN32 /D _DEBUG /D _CONSOLE /D _UNICODE /D UNICODE /D _CRT_SECURE_NO_WARNINGS /Gm /EHsc /RTC1 /MDd /GS /fp:precise /Zc:wchar_t /Zc:forScope /Yu"stdafx.h" /Fp"DEBUG\COMPILER_TESTE_V0.PCH" /Fo"DEBUG\\" /Fd"DEBUG\VC120.PDB" /Gd /TP /analyze- C:\USERS\FRANCISCO DIAS\DESKTOP\EMBEDDED SYSTEMS\SOURCE\COMPILER\RONDA 4\COMPILER_TESTE_V1.1_NOVO\COMPILER_TESTE_V0\ERROR.CPP
^C:\USERS\FRANCISCO DIAS\DESKTOP\EMBEDDED SYSTEMS\SOURCE\COMPILER\RONDA 4\COMPILER_TESTE_V1.1_NOVO\COMPILER_TESTE_V0\EXEC.CPP
/c /ZI /nologo /W3 /WX- /sdl /Od /Oy- /D WIN32 /D _DEBUG /D _CONSOLE /D _UNICODE /D UNICODE /D _CRT_SECURE_NO_WARNINGS /Gm /EHsc /RTC1 /MDd /GS /fp:precise /Zc:wchar_t /Zc:forScope /Yu"stdafx.h" /Fp"DEBUG\COMPILER_TESTE_V0.PCH" /Fo"DEBUG\\" /Fd"DEBUG\VC120.PDB" /Gd /TP /analyze- C:\USERS\FRANCISCO DIAS\DESKTOP\EMBEDDED SYSTEMS\SOURCE\COMPILER\RONDA 4\COMPILER_TESTE_V1.1_NOVO\COMPILER_TESTE_V0\EXEC.CPP
^C:\USERS\FRANCISCO DIAS\DESKTOP\EMBEDDED SYSTEMS\SOURCE\COMPILER\RONDA 4\COMPILER_TESTE_V1.1_NOVO\COMPILER_TESTE_V0\EXECEXPR.CPP
/c /ZI /nologo /W3 /WX- /sdl /Od /Oy- /D WIN32 /D _DEBUG /D _CONSOLE /D _UNICODE /D UNICODE /D _CRT_SECURE_NO_WARNINGS /Gm /EHsc /RTC1 /MDd /GS /fp:precise /Zc:wchar_t /Zc:forScope /Yu"stdafx.h" /Fp"DEBUG\COMPILER_TESTE_V0.PCH" /Fo"DEBUG\\" /Fd"DEBUG\VC120.PDB" /Gd /TP /analyze- C:\USERS\FRANCISCO DIAS\DESKTOP\EMBEDDED SYSTEMS\SOURCE\COMPILER\RONDA 4\COMPILER_TESTE_V1.1_NOVO\COMPILER_TESTE_V0\EXECEXPR.CPP
^C:\USERS\FRANCISCO DIAS\DESKTOP\EMBEDDED SYSTEMS\SOURCE\COMPILER\RONDA 4\COMPILER_TESTE_V1.1_NOVO\COMPILER_TESTE_V0\EXECRTN.CPP
/c /ZI /nologo /W3 /WX- /sdl /Od /Oy- /D WIN32 /D _DEBUG /D _CONSOLE /D _UNICODE /D UNICODE /D _CRT_SECURE_NO_WARNINGS /Gm /EHsc /RTC1 /MDd /GS /fp:precise /Zc:wchar_t /Zc:forScope /Yu"stdafx.h" /Fp"DEBUG\COMPILER_TESTE_V0.PCH" /Fo"DEBUG\\" /Fd"DEBUG\VC120.PDB" /Gd /TP /analyze- C:\USERS\FRANCISCO DIAS\DESKTOP\EMBEDDED SYSTEMS\SOURCE\COMPILER\RONDA 4\COMPILER_TESTE_V1.1_NOVO\COMPILER_TESTE_V0\EXECRTN.CPP
^C:\USERS\FRANCISCO DIAS\DESKTOP\EMBEDDED SYSTEMS\SOURCE\COMPILER\RONDA 4\COMPILER_TESTE_V1.1_NOVO\COMPILER_TESTE_V0\EXECSTMT.CPP
/c /ZI /nologo /W3 /WX- /sdl /Od /Oy- /D WIN32 /D _DEBUG /D _CONSOLE /D _UNICODE /D UNICODE /D _CRT_SECURE_NO_WARNINGS /Gm /EHsc /RTC1 /MDd /GS /fp:precise /Zc:wchar_t /Zc:forScope /Yu"stdafx.h" /Fp"DEBUG\COMPILER_TESTE_V0.PCH" /Fo"DEBUG\\" /Fd"DEBUG\VC120.PDB" /Gd /TP /analyze- C:\USERS\FRANCISCO DIAS\DESKTOP\EMBEDDED SYSTEMS\SOURCE\COMPILER\RONDA 4\COMPILER_TESTE_V1.1_NOVO\COMPILER_TESTE_V0\EXECSTMT.CPP
^C:\USERS\FRANCISCO DIAS\DESKTOP\EMBEDDED SYSTEMS\SOURCE\COMPILER\RONDA 4\COMPILER_TESTE_V1.1_NOVO\COMPILER_TESTE_V0\ICODE.CPP
/c /ZI /nologo /W3 /WX- /sdl /Od /Oy- /D WIN32 /D _DEBUG /D _CONSOLE /D _UNICODE /D UNICODE /D _CRT_SECURE_NO_WARNINGS /Gm /EHsc /RTC1 /MDd /GS /fp:precise /Zc:wchar_t /Zc:forScope /Yu"stdafx.h" /Fp"DEBUG\COMPILER_TESTE_V0.PCH" /Fo"DEBUG\\" /Fd"DEBUG\VC120.PDB" /Gd /TP /analyze- C:\USERS\FRANCISCO DIAS\DESKTOP\EMBEDDED SYSTEMS\SOURCE\COMPILER\RONDA 4\COMPILER_TESTE_V1.1_NOVO\COMPILER_TESTE_V0\ICODE.CPP
^C:\USERS\FRANCISCO DIAS\DESKTOP\EMBEDDED SYSTEMS\SOURCE\COMPILER\RONDA 4\COMPILER_TESTE_V1.1_NOVO\COMPILER_TESTE_V0\LINKER.CPP
/c /ZI /nologo /W3 /WX- /sdl /Od /Oy- /D WIN32 /D _DEBUG /D _CONSOLE /D _UNICODE /D UNICODE /D _CRT_SECURE_NO_WARNINGS /Gm /EHsc /RTC1 /MDd /GS /fp:precise /Zc:wchar_t /Zc:forScope /Yu"stdafx.h" /Fp"DEBUG\COMPILER_TESTE_V0.PCH" /Fo"DEBUG\\" /Fd"DEBUG\VC120.PDB" /Gd /TP /analyze- C:\USERS\FRANCISCO DIAS\DESKTOP\EMBEDDED SYSTEMS\SOURCE\COMPILER\RONDA 4\COMPILER_TESTE_V1.1_NOVO\COMPILER_TESTE_V0\LINKER.CPP
^C:\USERS\FRANCISCO DIAS\DESKTOP\EMBEDDED SYSTEMS\SOURCE\COMPILER\RONDA 4\COMPILER_TESTE_V1.1_NOVO\COMPILER_TESTE_V0\PARSEDECL.CPP
/c /ZI /nologo /W3 /WX- /sdl /Od /Oy- /D WIN32 /D _DEBUG /D _CONSOLE /D _UNICODE /D UNICODE /D _CRT_SECURE_NO_WARNINGS /Gm /EHsc /RTC1 /MDd /GS /fp:precise /Zc:wchar_t /Zc:forScope /Yu"stdafx.h" /Fp"DEBUG\COMPILER_TESTE_V0.PCH" /Fo"DEBUG\\" /Fd"DEBUG\VC120.PDB" /Gd /TP /analyze- C:\USERS\FRANCISCO DIAS\DESKTOP\EMBEDDED SYSTEMS\SOURCE\COMPILER\RONDA 4\COMPILER_TESTE_V1.1_NOVO\COMPILER_TESTE_V0\PARSEDECL.CPP
^C:\USERS\FRANCISCO DIAS\DESKTOP\EMBEDDED SYSTEMS\SOURCE\COMPILER\RONDA 4\COMPILER_TESTE_V1.1_NOVO\COMPILER_TESTE_V0\PARSER.CPP
/c /ZI /nologo /W3 /WX- /sdl /Od /Oy- /D WIN32 /D _DEBUG /D _CONSOLE /D _UNICODE /D UNICODE /D _CRT_SECURE_NO_WARNINGS /Gm /EHsc /RTC1 /MDd /GS /fp:precise /Zc:wchar_t /Zc:forScope /Yu"stdafx.h" /Fp"DEBUG\COMPILER_TESTE_V0.PCH" /Fo"DEBUG\\" /Fd"DEBUG\VC120.PDB" /Gd /TP /analyze- C:\USERS\FRANCISCO DIAS\DESKTOP\EMBEDDED SYSTEMS\SOURCE\COMPILER\RONDA 4\COMPILER_TESTE_V1.1_NOVO\COMPILER_TESTE_V0\PARSER.CPP
^C:\USERS\FRANCISCO DIAS\DESKTOP\EMBEDDED SYSTEMS\SOURCE\COMPILER\RONDA 4\COMPILER_TESTE_V1.1_NOVO\COMPILER_TESTE_V0\PARSEXPR.CPP
/c /ZI /nologo /W3 /WX- /sdl /Od /Oy- /D WIN32 /D _DEBUG /D _CONSOLE /D _UNICODE /D UNICODE /D _CRT_SECURE_NO_WARNINGS /Gm /EHsc /RTC1 /MDd /GS /fp:precise /Zc:wchar_t /Zc:forScope /Yu"stdafx.h" /Fp"DEBUG\COMPILER_TESTE_V0.PCH" /Fo"DEBUG\\" /Fd"DEBUG\VC120.PDB" /Gd /TP /analyze- C:\USERS\FRANCISCO DIAS\DESKTOP\EMBEDDED SYSTEMS\SOURCE\COMPILER\RONDA 4\COMPILER_TESTE_V1.1_NOVO\COMPILER_TESTE_V0\PARSEXPR.CPP
^C:\USERS\FRANCISCO DIAS\DESKTOP\EMBEDDED SYSTEMS\SOURCE\COMPILER\RONDA 4\COMPILER_TESTE_V1.1_NOVO\COMPILER_TESTE_V0\PARSSTMT.CPP
/c /ZI /nologo /W3 /WX- /sdl /Od /Oy- /D WIN32 /D _DEBUG /D _CONSOLE /D _UNICODE /D UNICODE /D _CRT_SECURE_NO_WARNINGS /Gm /EHsc /RTC1 /MDd /GS /fp:precise /Zc:wchar_t /Zc:forScope /Yu"stdafx.h" /Fp"DEBUG\COMPILER_TESTE_V0.PCH" /Fo"DEBUG\\" /Fd"DEBUG\VC120.PDB" /Gd /TP /analyze- C:\USERS\FRANCISCO DIAS\DESKTOP\EMBEDDED SYSTEMS\SOURCE\COMPILER\RONDA 4\COMPILER_TESTE_V1.1_NOVO\COMPILER_TESTE_V0\PARSSTMT.CPP
^C:\USERS\FRANCISCO DIAS\DESKTOP\EMBEDDED SYSTEMS\SOURCE\COMPILER\RONDA 4\COMPILER_TESTE_V1.1_NOVO\COMPILER_TESTE_V0\SCANNER.CPP
/c /ZI /nologo /W3 /WX- /sdl /Od /Oy- /D WIN32 /D _DEBUG /D _CONSOLE /D _UNICODE /D UNICODE /D _CRT_SECURE_NO_WARNINGS /Gm /EHsc /RTC1 /MDd /GS /fp:precise /Zc:wchar_t /Zc:forScope /Yu"stdafx.h" /Fp"DEBUG\COMPILER_TESTE_V0.PCH" /Fo"DEBUG\\" /Fd"DEBUG\VC120.PDB" /Gd /TP /analyze- C:\USERS\FRANCISCO DIAS\DESKTOP\EMBEDDED SYSTEMS\SOURCE\COMPILER\RONDA 4\COMPILER_TESTE_V1.1_NOVO\COMPILER_TESTE_V0\SCANNER.CPP
^C:\USERS\FRANCISCO DIAS\DESKTOP\EMBEDDED SYSTEMS\SOURCE\COMPILER\RONDA 4\COMPILER_TESTE_V1.1_NOVO\COMPILER_TESTE_V0\SYMTAB.CPP
/c /ZI /nologo /W3 /WX- /sdl /Od /Oy- /D WIN32 /D _DEBUG /D _CONSOLE /D _UNICODE /D UNICODE /D _CRT_SECURE_NO_WARNINGS /Gm /EHsc /RTC1 /MDd /GS /fp:precise /Zc:wchar_t /Zc:forScope /Yu"stdafx.h" /Fp"DEBUG\COMPILER_TESTE_V0.PCH" /Fo"DEBUG\\" /Fd"DEBUG\VC120.PDB" /Gd /TP /analyze- C:\USERS\FRANCISCO DIAS\DESKTOP\EMBEDDED SYSTEMS\SOURCE\COMPILER\RONDA 4\COMPILER_TESTE_V1.1_NOVO\COMPILER_TESTE_V0\SYMTAB.CPP
^C:\USERS\FRANCISCO DIAS\DESKTOP\EMBEDDED SYSTEMS\SOURCE\COMPILER\RONDA 4\COMPILER_TESTE_V1.1_NOVO\COMPILER_TESTE_V0\TKNNUM.CPP
/c /ZI /nologo /W3 /WX- /sdl /Od /Oy- /D WIN32 /D _DEBUG /D _CONSOLE /D _UNICODE /D UNICODE /D _CRT_SECURE_NO_WARNINGS /Gm /EHsc /RTC1 /MDd /GS /fp:precise /Zc:wchar_t /Zc:forScope /Yu"stdafx.h" /Fp"DEBUG\COMPILER_TESTE_V0.PCH" /Fo"DEBUG\\" /Fd"DEBUG\VC120.PDB" /Gd /TP /analyze- C:\USERS\FRANCISCO DIAS\DESKTOP\EMBEDDED SYSTEMS\SOURCE\COMPILER\RONDA 4\COMPILER_TESTE_V1.1_NOVO\COMPILER_TESTE_V0\TKNNUM.CPP
^C:\USERS\FRANCISCO DIAS\DESKTOP\EMBEDDED SYSTEMS\SOURCE\COMPILER\RONDA 4\COMPILER_TESTE_V1.1_NOVO\COMPILER_TESTE_V0\TKNSTRSP.CPP
/c /ZI /nologo /W3 /WX- /sdl /Od /Oy- /D WIN32 /D _DEBUG /D _CONSOLE /D _UNICODE /D UNICODE /D _CRT_SECURE_NO_WARNINGS /Gm /EHsc /RTC1 /MDd /GS /fp:precise /Zc:wchar_t /Zc:forScope /Yu"stdafx.h" /Fp"DEBUG\COMPILER_TESTE_V0.PCH" /Fo"DEBUG\\" /Fd"DEBUG\VC120.PDB" /Gd /TP /analyze- C:\USERS\FRANCISCO DIAS\DESKTOP\EMBEDDED SYSTEMS\SOURCE\COMPILER\RONDA 4\COMPILER_TESTE_V1.1_NOVO\COMPILER_TESTE_V0\TKNSTRSP.CPP
^C:\USERS\FRANCISCO DIAS\DESKTOP\EMBEDDED SYSTEMS\SOURCE\COMPILER\RONDA 4\COMPILER_TESTE_V1.1_NOVO\COMPILER_TESTE_V0\TKNWORD.CPP
/c /ZI /nologo /W3 /WX- /sdl /Od /Oy- /D WIN32 /D _DEBUG /D _CONSOLE /D _UNICODE /D UNICODE /D _CRT_SECURE_NO_WARNINGS /Gm /EHsc /RTC1 /MDd /GS /fp:precise /Zc:wchar_t /Zc:forScope /Yu"stdafx.h" /Fp"DEBUG\COMPILER_TESTE_V0.PCH" /Fo"DEBUG\\" /Fd"DEBUG\VC120.PDB" /Gd /TP /analyze- C:\USERS\FRANCISCO DIAS\DESKTOP\EMBEDDED SYSTEMS\SOURCE\COMPILER\RONDA 4\COMPILER_TESTE_V1.1_NOVO\COMPILER_TESTE_V0\TKNWORD.CPP
^C:\USERS\FRANCISCO DIAS\DESKTOP\EMBEDDED SYSTEMS\SOURCE\COMPILER\RONDA 4\COMPILER_TESTE_V1.1_NOVO\COMPILER_TESTE_V0\TOKEN.CPP
/c /ZI /nologo /W3 /WX- /sdl /Od /Oy- /D WIN32 /D _DEBUG /D _CONSOLE /D _UNICODE /D UNICODE /D _CRT_SECURE_NO_WARNINGS /Gm /EHsc /RTC1 /MDd /GS /fp:precise /Zc:wchar_t /Zc:forScope /Yu"stdafx.h" /Fp"DEBUG\COMPILER_TESTE_V0.PCH" /Fo"DEBUG\\" /Fd"DEBUG\VC120.PDB" /Gd /TP /analyze- C:\USERS\FRANCISCO DIAS\DESKTOP\EMBEDDED SYSTEMS\SOURCE\COMPILER\RONDA 4\COMPILER_TESTE_V1.1_NOVO\COMPILER_TESTE_V0\TOKEN.CPP
^C:\USERS\FRANCISCO DIAS\DESKTOP\EMBEDDED SYSTEMS\SOURCE\COMPILER\RONDA 4\COMPILER_TESTE_V1.1_NOVO\COMPILER_TESTE_V0\TYPES.CPP
/c /ZI /nologo /W3 /WX- /sdl /Od /Oy- /D WIN32 /D _DEBUG /D _CONSOLE /D _UNICODE /D UNICODE /D _CRT_SECURE_NO_WARNINGS /Gm /EHsc /RTC1 /MDd /GS /fp:precise /Zc:wchar_t /Zc:forScope /Yu"stdafx.h" /Fp"DEBUG\COMPILER_TESTE_V0.PCH" /Fo"DEBUG\\" /Fd"DEBUG\VC120.PDB" /Gd /TP /analyze- C:\USERS\FRANCISCO DIAS\DESKTOP\EMBEDDED SYSTEMS\SOURCE\COMPILER\RONDA 4\COMPILER_TESTE_V1.1_NOVO\COMPILER_TESTE_V0\TYPES.CPP
