^C:\USERS\MARCELO\DESKTOP\COMPILADOR\COMPILER_TESTE_V1.1_NOVO\COMPILER_TESTE_V0\STDAFX.CPP
C:\USERS\MARCELO\DESKTOP\COMPILADOR\COMPILER_TESTE_V1.1_NOVO\COMPILER_TESTE_V0\DEBUG\COMPILER_TESTE_V0.PCH
C:\USERS\MARCELO\DESKTOP\COMPILADOR\COMPILER_TESTE_V1.1_NOVO\COMPILER_TESTE_V0\DEBUG\STDAFX.OBJ
C:\USERS\MARCELO\DESKTOP\COMPILADOR\COMPILER_TESTE_V1.1_NOVO\COMPILER_TESTE_V0\DEBUG\VC110.PDB
^C:\USERS\MARCELO\DESKTOP\COMPILADOR\COMPILER_TESTE_V1.1_NOVO\COMPILER_TESTE_V0\BUFFER.CPP|C:\USERS\MARCELO\DESKTOP\COMPILADOR\COMPILER_TESTE_V1.1_NOVO\COMPILER_TESTE_V0\CODEGEN.CPP|C:\USERS\MARCELO\DESKTOP\COMPILADOR\COMPILER_TESTE_V1.1_NOVO\COMPILER_TESTE_V0\COMMON.CPP|C:\USERS\MARCELO\DESKTOP\COMPILADOR\COMPILER_TESTE_V1.1_NOVO\COMPILER_TESTE_V0\COMPILER_TESTE_V0.CPP|C:\USERS\MARCELO\DESKTOP\COMPILADOR\COMPILER_TESTE_V1.1_NOVO\COMPILER_TESTE_V0\COMPLIST.CPP|C:\USERS\MARCELO\DESKTOP\COMPILADOR\COMPILER_TESTE_V1.1_NOVO\COMPILER_TESTE_V0\DPLIST.CPP|C:\USERS\MARCELO\DESKTOP\COMPILADOR\COMPILER_TESTE_V1.1_NOVO\COMPILER_TESTE_V0\EMITASM.CPP|C:\USERS\MARCELO\DESKTOP\COMPILADOR\COMPILER_TESTE_V1.1_NOVO\COMPILER_TESTE_V0\EMITCODE.CPP|C:\USERS\MARCELO\DESKTOP\COMPILADOR\COMPILER_TESTE_V1.1_NOVO\COMPILER_TESTE_V0\EMITEXPR.CPP|C:\USERS\MARCELO\DESKTOP\COMPILADOR\COMPILER_TESTE_V1.1_NOVO\COMPILER_TESTE_V0\EMITRTN.CPP|C:\USERS\MARCELO\DESKTOP\COMPILADOR\COMPILER_TESTE_V1.1_NOVO\COMPILER_TESTE_V0\EMITSRC.CPP|C:\USERS\MARCELO\DESKTOP\COMPILADOR\COMPILER_TESTE_V1.1_NOVO\COMPILER_TESTE_V0\EMITSTMT.CPP|C:\USERS\MARCELO\DESKTOP\COMPILADOR\COMPILER_TESTE_V1.1_NOVO\COMPILER_TESTE_V0\ERROR.CPP|C:\USERS\MARCELO\DESKTOP\COMPILADOR\COMPILER_TESTE_V1.1_NOVO\COMPILER_TESTE_V0\EXEC.CPP|C:\USERS\MARCELO\DESKTOP\COMPILADOR\COMPILER_TESTE_V1.1_NOVO\COMPILER_TESTE_V0\EXECEXPR.CPP|C:\USERS\MARCELO\DESKTOP\COMPILADOR\COMPILER_TESTE_V1.1_NOVO\COMPILER_TESTE_V0\EXECRTN.CPP|C:\USERS\MARCELO\DESKTOP\COMPILADOR\COMPILER_TESTE_V1.1_NOVO\COMPILER_TESTE_V0\EXECSTMT.CPP|C:\USERS\MARCELO\DESKTOP\COMPILADOR\COMPILER_TESTE_V1.1_NOVO\COMPILER_TESTE_V0\ICODE.CPP|C:\USERS\MARCELO\DESKTOP\COMPILADOR\COMPILER_TESTE_V1.1_NOVO\COMPILER_TESTE_V0\LINKER.CPP|C:\USERS\MARCELO\DESKTOP\COMPILADOR\COMPILER_TESTE_V1.1_NOVO\COMPILER_TESTE_V0\PARSEDECL.CPP|C:\USERS\MARCELO\DESKTOP\COMPILADOR\COMPILER_TESTE_V1.1_NOVO\COMPILER_TESTE_V0\PARSER.CPP|C:\USERS\MARCELO\DESKTOP\COMPILADOR\COMPILER_TESTE_V1.1_NOVO\COMPILER_TESTE_V0\PARSEXPR.CPP|C:\USERS\MARCELO\DESKTOP\COMPILADOR\COMPILER_TESTE_V1.1_NOVO\COMPILER_TESTE_V0\PARSSTMT.CPP|C:\USERS\MARCELO\DESKTOP\COMPILADOR\COMPILER_TESTE_V1.1_NOVO\COMPILER_TESTE_V0\SCANNER.CPP|C:\USERS\MARCELO\DESKTOP\COMPILADOR\COMPILER_TESTE_V1.1_NOVO\COMPILER_TESTE_V0\SYMTAB.CPP|C:\USERS\MARCELO\DESKTOP\COMPILADOR\COMPILER_TESTE_V1.1_NOVO\COMPILER_TESTE_V0\TKNNUM.CPP|C:\USERS\MARCELO\DESKTOP\COMPILADOR\COMPILER_TESTE_V1.1_NOVO\COMPILER_TESTE_V0\TKNSTRSP.CPP|C:\USERS\MARCELO\DESKTOP\COMPILADOR\COMPILER_TESTE_V1.1_NOVO\COMPILER_TESTE_V0\TKNWORD.CPP|C:\USERS\MARCELO\DESKTOP\COMPILADOR\COMPILER_TESTE_V1.1_NOVO\COMPILER_TESTE_V0\TOKEN.CPP|C:\USERS\MARCELO\DESKTOP\COMPILADOR\COMPILER_TESTE_V1.1_NOVO\COMPILER_TESTE_V0\TYPES.CPP
C:\USERS\MARCELO\DESKTOP\COMPILADOR\COMPILER_TESTE_V1.1_NOVO\COMPILER_TESTE_V0\DEBUG\EMITSRC.OBJ
C:\USERS\MARCELO\DESKTOP\COMPILADOR\COMPILER_TESTE_V1.1_NOVO\COMPILER_TESTE_V0\DEBUG\EMITSTMT.OBJ
C:\USERS\MARCELO\DESKTOP\COMPILADOR\COMPILER_TESTE_V1.1_NOVO\COMPILER_TESTE_V0\DEBUG\ERROR.OBJ
C:\USERS\MARCELO\DESKTOP\COMPILADOR\COMPILER_TESTE_V1.1_NOVO\COMPILER_TESTE_V0\DEBUG\EXEC.OBJ
C:\USERS\MARCELO\DESKTOP\COMPILADOR\COMPILER_TESTE_V1.1_NOVO\COMPILER_TESTE_V0\DEBUG\EXECEXPR.OBJ
C:\USERS\MARCELO\DESKTOP\COMPILADOR\COMPILER_TESTE_V1.1_NOVO\COMPILER_TESTE_V0\DEBUG\EXECRTN.OBJ
C:\USERS\MARCELO\DESKTOP\COMPILADOR\COMPILER_TESTE_V1.1_NOVO\COMPILER_TESTE_V0\DEBUG\EXECSTMT.OBJ
C:\USERS\MARCELO\DESKTOP\COMPILADOR\COMPILER_TESTE_V1.1_NOVO\COMPILER_TESTE_V0\DEBUG\ICODE.OBJ
C:\USERS\MARCELO\DESKTOP\COMPILADOR\COMPILER_TESTE_V1.1_NOVO\COMPILER_TESTE_V0\DEBUG\LINKER.OBJ
C:\USERS\MARCELO\DESKTOP\COMPILADOR\COMPILER_TESTE_V1.1_NOVO\COMPILER_TESTE_V0\DEBUG\PARSEDECL.OBJ
C:\USERS\MARCELO\DESKTOP\COMPILADOR\COMPILER_TESTE_V1.1_NOVO\COMPILER_TESTE_V0\DEBUG\PARSER.OBJ
C:\USERS\MARCELO\DESKTOP\COMPILADOR\COMPILER_TESTE_V1.1_NOVO\COMPILER_TESTE_V0\DEBUG\PARSEXPR.OBJ
C:\USERS\MARCELO\DESKTOP\COMPILADOR\COMPILER_TESTE_V1.1_NOVO\COMPILER_TESTE_V0\DEBUG\PARSSTMT.OBJ
C:\USERS\MARCELO\DESKTOP\COMPILADOR\COMPILER_TESTE_V1.1_NOVO\COMPILER_TESTE_V0\DEBUG\SCANNER.OBJ
C:\USERS\MARCELO\DESKTOP\COMPILADOR\COMPILER_TESTE_V1.1_NOVO\COMPILER_TESTE_V0\DEBUG\SYMTAB.OBJ
C:\USERS\MARCELO\DESKTOP\COMPILADOR\COMPILER_TESTE_V1.1_NOVO\COMPILER_TESTE_V0\DEBUG\TKNNUM.OBJ
C:\USERS\MARCELO\DESKTOP\COMPILADOR\COMPILER_TESTE_V1.1_NOVO\COMPILER_TESTE_V0\DEBUG\TKNSTRSP.OBJ
C:\USERS\MARCELO\DESKTOP\COMPILADOR\COMPILER_TESTE_V1.1_NOVO\COMPILER_TESTE_V0\DEBUG\TKNWORD.OBJ
C:\USERS\MARCELO\DESKTOP\COMPILADOR\COMPILER_TESTE_V1.1_NOVO\COMPILER_TESTE_V0\DEBUG\TOKEN.OBJ
C:\USERS\MARCELO\DESKTOP\COMPILADOR\COMPILER_TESTE_V1.1_NOVO\COMPILER_TESTE_V0\DEBUG\TYPES.OBJ
C:\USERS\MARCELO\DESKTOP\COMPILADOR\COMPILER_TESTE_V1.1_NOVO\COMPILER_TESTE_V0\DEBUG\BUFFER.OBJ
C:\USERS\MARCELO\DESKTOP\COMPILADOR\COMPILER_TESTE_V1.1_NOVO\COMPILER_TESTE_V0\DEBUG\CODEGEN.OBJ
C:\USERS\MARCELO\DESKTOP\COMPILADOR\COMPILER_TESTE_V1.1_NOVO\COMPILER_TESTE_V0\DEBUG\COMMON.OBJ
C:\USERS\MARCELO\DESKTOP\COMPILADOR\COMPILER_TESTE_V1.1_NOVO\COMPILER_TESTE_V0\DEBUG\COMPILER_TESTE_V0.OBJ
C:\USERS\MARCELO\DESKTOP\COMPILADOR\COMPILER_TESTE_V1.1_NOVO\COMPILER_TESTE_V0\DEBUG\COMPLIST.OBJ
C:\USERS\MARCELO\DESKTOP\COMPILADOR\COMPILER_TESTE_V1.1_NOVO\COMPILER_TESTE_V0\DEBUG\DPLIST.OBJ
C:\USERS\MARCELO\DESKTOP\COMPILADOR\COMPILER_TESTE_V1.1_NOVO\COMPILER_TESTE_V0\DEBUG\EMITASM.OBJ
C:\USERS\MARCELO\DESKTOP\COMPILADOR\COMPILER_TESTE_V1.1_NOVO\COMPILER_TESTE_V0\DEBUG\EMITCODE.OBJ
C:\USERS\MARCELO\DESKTOP\COMPILADOR\COMPILER_TESTE_V1.1_NOVO\COMPILER_TESTE_V0\DEBUG\EMITEXPR.OBJ
C:\USERS\MARCELO\DESKTOP\COMPILADOR\COMPILER_TESTE_V1.1_NOVO\COMPILER_TESTE_V0\DEBUG\EMITRTN.OBJ
^C:\USERS\MARCELO\DESKTOP\COMPILADOR\COMPILER_TESTE_V1.1_NOVO\COMPILER_TESTE_V0\BUFFER.CPP
C:\USERS\MARCELO\DESKTOP\COMPILADOR\COMPILER_TESTE_V1.1_NOVO\COMPILER_TESTE_V0\DEBUG\VC110.PDB
^C:\USERS\MARCELO\DESKTOP\COMPILADOR\COMPILER_TESTE_V1.1_NOVO\COMPILER_TESTE_V0\CODEGEN.CPP
C:\USERS\MARCELO\DESKTOP\COMPILADOR\COMPILER_TESTE_V1.1_NOVO\COMPILER_TESTE_V0\DEBUG\VC110.PDB
C:\USERS\MARCELO\DESKTOP\COMPILADOR\COMPILER_TESTE_V1.1_NOVO\COMPILER_TESTE_V0\DEBUG\CODEGEN.OBJ
^C:\USERS\MARCELO\DESKTOP\COMPILADOR\COMPILER_TESTE_V1.1_NOVO\COMPILER_TESTE_V0\COMMON.CPP
C:\USERS\MARCELO\DESKTOP\COMPILADOR\COMPILER_TESTE_V1.1_NOVO\COMPILER_TESTE_V0\DEBUG\VC110.PDB
^C:\USERS\MARCELO\DESKTOP\COMPILADOR\COMPILER_TESTE_V1.1_NOVO\COMPILER_TESTE_V0\COMPILER_TESTE_V0.CPP
C:\USERS\MARCELO\DESKTOP\COMPILADOR\COMPILER_TESTE_V1.1_NOVO\COMPILER_TESTE_V0\DEBUG\VC110.PDB
^C:\USERS\MARCELO\DESKTOP\COMPILADOR\COMPILER_TESTE_V1.1_NOVO\COMPILER_TESTE_V0\COMPLIST.CPP
C:\USERS\MARCELO\DESKTOP\COMPILADOR\COMPILER_TESTE_V1.1_NOVO\COMPILER_TESTE_V0\DEBUG\VC110.PDB
^C:\USERS\MARCELO\DESKTOP\COMPILADOR\COMPILER_TESTE_V1.1_NOVO\COMPILER_TESTE_V0\DPLIST.CPP
C:\USERS\MARCELO\DESKTOP\COMPILADOR\COMPILER_TESTE_V1.1_NOVO\COMPILER_TESTE_V0\DEBUG\VC110.PDB
^C:\USERS\MARCELO\DESKTOP\COMPILADOR\COMPILER_TESTE_V1.1_NOVO\COMPILER_TESTE_V0\EMITASM.CPP
C:\USERS\MARCELO\DESKTOP\COMPILADOR\COMPILER_TESTE_V1.1_NOVO\COMPILER_TESTE_V0\DEBUG\VC110.PDB
^C:\USERS\MARCELO\DESKTOP\COMPILADOR\COMPILER_TESTE_V1.1_NOVO\COMPILER_TESTE_V0\EMITCODE.CPP
C:\USERS\MARCELO\DESKTOP\COMPILADOR\COMPILER_TESTE_V1.1_NOVO\COMPILER_TESTE_V0\DEBUG\VC110.PDB
C:\USERS\MARCELO\DESKTOP\COMPILADOR\COMPILER_TESTE_V1.1_NOVO\COMPILER_TESTE_V0\DEBUG\EMITCODE.OBJ
^C:\USERS\MARCELO\DESKTOP\COMPILADOR\COMPILER_TESTE_V1.1_NOVO\COMPILER_TESTE_V0\EMITEXPR.CPP
C:\USERS\MARCELO\DESKTOP\COMPILADOR\COMPILER_TESTE_V1.1_NOVO\COMPILER_TESTE_V0\DEBUG\VC110.PDB
C:\USERS\MARCELO\DESKTOP\COMPILADOR\COMPILER_TESTE_V1.1_NOVO\COMPILER_TESTE_V0\DEBUG\EMITEXPR.OBJ
^C:\USERS\MARCELO\DESKTOP\COMPILADOR\COMPILER_TESTE_V1.1_NOVO\COMPILER_TESTE_V0\EMITRTN.CPP
C:\USERS\MARCELO\DESKTOP\COMPILADOR\COMPILER_TESTE_V1.1_NOVO\COMPILER_TESTE_V0\DEBUG\VC110.PDB
C:\USERS\MARCELO\DESKTOP\COMPILADOR\COMPILER_TESTE_V1.1_NOVO\COMPILER_TESTE_V0\DEBUG\EMITRTN.OBJ
^C:\USERS\MARCELO\DESKTOP\COMPILADOR\COMPILER_TESTE_V1.1_NOVO\COMPILER_TESTE_V0\EMITSRC.CPP
C:\USERS\MARCELO\DESKTOP\COMPILADOR\COMPILER_TESTE_V1.1_NOVO\COMPILER_TESTE_V0\DEBUG\VC110.PDB
^C:\USERS\MARCELO\DESKTOP\COMPILADOR\COMPILER_TESTE_V1.1_NOVO\COMPILER_TESTE_V0\EMITSTMT.CPP
C:\USERS\MARCELO\DESKTOP\COMPILADOR\COMPILER_TESTE_V1.1_NOVO\COMPILER_TESTE_V0\DEBUG\VC110.PDB
C:\USERS\MARCELO\DESKTOP\COMPILADOR\COMPILER_TESTE_V1.1_NOVO\COMPILER_TESTE_V0\DEBUG\EMITSTMT.OBJ
^C:\USERS\MARCELO\DESKTOP\COMPILADOR\COMPILER_TESTE_V1.1_NOVO\COMPILER_TESTE_V0\ERROR.CPP
C:\USERS\MARCELO\DESKTOP\COMPILADOR\COMPILER_TESTE_V1.1_NOVO\COMPILER_TESTE_V0\DEBUG\VC110.PDB
^C:\USERS\MARCELO\DESKTOP\COMPILADOR\COMPILER_TESTE_V1.1_NOVO\COMPILER_TESTE_V0\EXEC.CPP
C:\USERS\MARCELO\DESKTOP\COMPILADOR\COMPILER_TESTE_V1.1_NOVO\COMPILER_TESTE_V0\DEBUG\VC110.PDB
^C:\USERS\MARCELO\DESKTOP\COMPILADOR\COMPILER_TESTE_V1.1_NOVO\COMPILER_TESTE_V0\EXECEXPR.CPP
C:\USERS\MARCELO\DESKTOP\COMPILADOR\COMPILER_TESTE_V1.1_NOVO\COMPILER_TESTE_V0\DEBUG\VC110.PDB
^C:\USERS\MARCELO\DESKTOP\COMPILADOR\COMPILER_TESTE_V1.1_NOVO\COMPILER_TESTE_V0\EXECRTN.CPP
C:\USERS\MARCELO\DESKTOP\COMPILADOR\COMPILER_TESTE_V1.1_NOVO\COMPILER_TESTE_V0\DEBUG\VC110.PDB
^C:\USERS\MARCELO\DESKTOP\COMPILADOR\COMPILER_TESTE_V1.1_NOVO\COMPILER_TESTE_V0\EXECSTMT.CPP
C:\USERS\MARCELO\DESKTOP\COMPILADOR\COMPILER_TESTE_V1.1_NOVO\COMPILER_TESTE_V0\DEBUG\VC110.PDB
^C:\USERS\MARCELO\DESKTOP\COMPILADOR\COMPILER_TESTE_V1.1_NOVO\COMPILER_TESTE_V0\ICODE.CPP
C:\USERS\MARCELO\DESKTOP\COMPILADOR\COMPILER_TESTE_V1.1_NOVO\COMPILER_TESTE_V0\DEBUG\VC110.PDB
^C:\USERS\MARCELO\DESKTOP\COMPILADOR\COMPILER_TESTE_V1.1_NOVO\COMPILER_TESTE_V0\LINKER.CPP
C:\USERS\MARCELO\DESKTOP\COMPILADOR\COMPILER_TESTE_V1.1_NOVO\COMPILER_TESTE_V0\DEBUG\VC110.PDB
^C:\USERS\MARCELO\DESKTOP\COMPILADOR\COMPILER_TESTE_V1.1_NOVO\COMPILER_TESTE_V0\PARSEDECL.CPP
C:\USERS\MARCELO\DESKTOP\COMPILADOR\COMPILER_TESTE_V1.1_NOVO\COMPILER_TESTE_V0\DEBUG\VC110.PDB
^C:\USERS\MARCELO\DESKTOP\COMPILADOR\COMPILER_TESTE_V1.1_NOVO\COMPILER_TESTE_V0\PARSER.CPP
C:\USERS\MARCELO\DESKTOP\COMPILADOR\COMPILER_TESTE_V1.1_NOVO\COMPILER_TESTE_V0\DEBUG\VC110.PDB
^C:\USERS\MARCELO\DESKTOP\COMPILADOR\COMPILER_TESTE_V1.1_NOVO\COMPILER_TESTE_V0\PARSEXPR.CPP
C:\USERS\MARCELO\DESKTOP\COMPILADOR\COMPILER_TESTE_V1.1_NOVO\COMPILER_TESTE_V0\DEBUG\VC110.PDB
^C:\USERS\MARCELO\DESKTOP\COMPILADOR\COMPILER_TESTE_V1.1_NOVO\COMPILER_TESTE_V0\PARSSTMT.CPP
C:\USERS\MARCELO\DESKTOP\COMPILADOR\COMPILER_TESTE_V1.1_NOVO\COMPILER_TESTE_V0\DEBUG\VC110.PDB
^C:\USERS\MARCELO\DESKTOP\COMPILADOR\COMPILER_TESTE_V1.1_NOVO\COMPILER_TESTE_V0\SCANNER.CPP
C:\USERS\MARCELO\DESKTOP\COMPILADOR\COMPILER_TESTE_V1.1_NOVO\COMPILER_TESTE_V0\DEBUG\VC110.PDB
^C:\USERS\MARCELO\DESKTOP\COMPILADOR\COMPILER_TESTE_V1.1_NOVO\COMPILER_TESTE_V0\SYMTAB.CPP
C:\USERS\MARCELO\DESKTOP\COMPILADOR\COMPILER_TESTE_V1.1_NOVO\COMPILER_TESTE_V0\DEBUG\VC110.PDB
C:\USERS\MARCELO\DESKTOP\COMPILADOR\COMPILER_TESTE_V1.1_NOVO\COMPILER_TESTE_V0\DEBUG\SYMTAB.OBJ
^C:\USERS\MARCELO\DESKTOP\COMPILADOR\COMPILER_TESTE_V1.1_NOVO\COMPILER_TESTE_V0\TKNNUM.CPP
C:\USERS\MARCELO\DESKTOP\COMPILADOR\COMPILER_TESTE_V1.1_NOVO\COMPILER_TESTE_V0\DEBUG\VC110.PDB
^C:\USERS\MARCELO\DESKTOP\COMPILADOR\COMPILER_TESTE_V1.1_NOVO\COMPILER_TESTE_V0\TKNSTRSP.CPP
C:\USERS\MARCELO\DESKTOP\COMPILADOR\COMPILER_TESTE_V1.1_NOVO\COMPILER_TESTE_V0\DEBUG\VC110.PDB
^C:\USERS\MARCELO\DESKTOP\COMPILADOR\COMPILER_TESTE_V1.1_NOVO\COMPILER_TESTE_V0\TKNWORD.CPP
C:\USERS\MARCELO\DESKTOP\COMPILADOR\COMPILER_TESTE_V1.1_NOVO\COMPILER_TESTE_V0\DEBUG\VC110.PDB
^C:\USERS\MARCELO\DESKTOP\COMPILADOR\COMPILER_TESTE_V1.1_NOVO\COMPILER_TESTE_V0\TOKEN.CPP
C:\USERS\MARCELO\DESKTOP\COMPILADOR\COMPILER_TESTE_V1.1_NOVO\COMPILER_TESTE_V0\DEBUG\VC110.PDB
^C:\USERS\MARCELO\DESKTOP\COMPILADOR\COMPILER_TESTE_V1.1_NOVO\COMPILER_TESTE_V0\TYPES.CPP
C:\USERS\MARCELO\DESKTOP\COMPILADOR\COMPILER_TESTE_V1.1_NOVO\COMPILER_TESTE_V0\DEBUG\VC110.PDB
^C:\USERS\MARCELO\DESKTOP\COMPILADOR\COMPILER_TESTE_V1.1_NOVO\COMPILER_TESTE_V0\EMITEXPR.CPP|C:\USERS\MARCELO\DESKTOP\COMPILADOR\COMPILER_TESTE_V1.1_NOVO\COMPILER_TESTE_V0\EMITRTN.CPP
C:\USERS\MARCELO\DESKTOP\COMPILADOR\COMPILER_TESTE_V1.1_NOVO\COMPILER_TESTE_V0\DEBUG\EMITEXPR.OBJ
C:\USERS\MARCELO\DESKTOP\COMPILADOR\COMPILER_TESTE_V1.1_NOVO\COMPILER_TESTE_V0\DEBUG\EMITRTN.OBJ
