^C:\USERS\MARCELO\DESKTOP\COMPILADOR\COMPILER_TESTE_V1.1_NOVO\COMPILER_TESTE_V0\DEBUG\BUFFER.OBJ|C:\USERS\MARCELO\DESKTOP\COMPILADOR\COMPILER_TESTE_V1.1_NOVO\COMPILER_TESTE_V0\DEBUG\CODEGEN.OBJ|C:\USERS\MARCELO\DESKTOP\COMPILADOR\COMPILER_TESTE_V1.1_NOVO\COMPILER_TESTE_V0\DEBUG\COMMON.OBJ|C:\USERS\MARCELO\DESKTOP\COMPILADOR\COMPILER_TESTE_V1.1_NOVO\COMPILER_TESTE_V0\DEBUG\COMPILER_TESTE_V0.OBJ|C:\USERS\MARCELO\DESKTOP\COMPILADOR\COMPILER_TESTE_V1.1_NOVO\COMPILER_TESTE_V0\DEBUG\COMPLIST.OBJ|C:\USERS\MARCELO\DESKTOP\COMPILADOR\COMPILER_TESTE_V1.1_NOVO\COMPILER_TESTE_V0\DEBUG\DPLIST.OBJ|C:\USERS\MARCELO\DESKTOP\COMPILADOR\COMPILER_TESTE_V1.1_NOVO\COMPILER_TESTE_V0\DEBUG\EMITASM.OBJ|C:\USERS\MARCELO\DESKTOP\COMPILADOR\COMPILER_TESTE_V1.1_NOVO\COMPILER_TESTE_V0\DEBUG\EMITCODE.OBJ|C:\USERS\MARCELO\DESKTOP\COMPILADOR\COMPILER_TESTE_V1.1_NOVO\COMPILER_TESTE_V0\DEBUG\EMITEXPR.OBJ|C:\USERS\MARCELO\DESKTOP\COMPILADOR\COMPILER_TESTE_V1.1_NOVO\COMPILER_TESTE_V0\DEBUG\EMITRTN.OBJ|C:\USERS\MARCELO\DESKTOP\COMPILADOR\COMPILER_TESTE_V1.1_NOVO\COMPILER_TESTE_V0\DEBUG\EMITSRC.OBJ|C:\USERS\MARCELO\DESKTOP\COMPILADOR\COMPILER_TESTE_V1.1_NOVO\COMPILER_TESTE_V0\DEBUG\EMITSTMT.OBJ|C:\USERS\MARCELO\DESKTOP\COMPILADOR\COMPILER_TESTE_V1.1_NOVO\COMPILER_TESTE_V0\DEBUG\ERROR.OBJ|C:\USERS\MARCELO\DESKTOP\COMPILADOR\COMPILER_TESTE_V1.1_NOVO\COMPILER_TESTE_V0\DEBUG\EXEC.OBJ|C:\USERS\MARCELO\DESKTOP\COMPILADOR\COMPILER_TESTE_V1.1_NOVO\COMPILER_TESTE_V0\DEBUG\EXECEXPR.OBJ|C:\USERS\MARCELO\DESKTOP\COMPILADOR\COMPILER_TESTE_V1.1_NOVO\COMPILER_TESTE_V0\DEBUG\EXECRTN.OBJ|C:\USERS\MARCELO\DESKTOP\COMPILADOR\COMPILER_TESTE_V1.1_NOVO\COMPILER_TESTE_V0\DEBUG\EXECSTMT.OBJ|C:\USERS\MARCELO\DESKTOP\COMPILADOR\COMPILER_TESTE_V1.1_NOVO\COMPILER_TESTE_V0\DEBUG\ICODE.OBJ|C:\USERS\MARCELO\DESKTOP\COMPILADOR\COMPILER_TESTE_V1.1_NOVO\COMPILER_TESTE_V0\DEBUG\LINKER.OBJ|C:\USERS\MARCELO\DESKTOP\COMPILADOR\COMPILER_TESTE_V1.1_NOVO\COMPILER_TESTE_V0\DEBUG\PARSEDECL.OBJ|C:\USERS\MARCELO\DESKTOP\COMPILADOR\COMPILER_TESTE_V1.1_NOVO\COMPILER_TESTE_V0\DEBUG\PARSER.OBJ|C:\USERS\MARCELO\DESKTOP\COMPILADOR\COMPILER_TESTE_V1.1_NOVO\COMPILER_TESTE_V0\DEBUG\PARSEXPR.OBJ|C:\USERS\MARCELO\DESKTOP\COMPILADOR\COMPILER_TESTE_V1.1_NOVO\COMPILER_TESTE_V0\DEBUG\PARSSTMT.OBJ|C:\USERS\MARCELO\DESKTOP\COMPILADOR\COMPILER_TESTE_V1.1_NOVO\COMPILER_TESTE_V0\DEBUG\SCANNER.OBJ|C:\USERS\MARCELO\DESKTOP\COMPILADOR\COMPILER_TESTE_V1.1_NOVO\COMPILER_TESTE_V0\DEBUG\STDAFX.OBJ|C:\USERS\MARCELO\DESKTOP\COMPILADOR\COMPILER_TESTE_V1.1_NOVO\COMPILER_TESTE_V0\DEBUG\SYMTAB.OBJ|C:\USERS\MARCELO\DESKTOP\COMPILADOR\COMPILER_TESTE_V1.1_NOVO\COMPILER_TESTE_V0\DEBUG\TKNNUM.OBJ|C:\USERS\MARCELO\DESKTOP\COMPILADOR\COMPILER_TESTE_V1.1_NOVO\COMPILER_TESTE_V0\DEBUG\TKNSTRSP.OBJ|C:\USERS\MARCELO\DESKTOP\COMPILADOR\COMPILER_TESTE_V1.1_NOVO\COMPILER_TESTE_V0\DEBUG\TKNWORD.OBJ|C:\USERS\MARCELO\DESKTOP\COMPILADOR\COMPILER_TESTE_V1.1_NOVO\COMPILER_TESTE_V0\DEBUG\TOKEN.OBJ|C:\USERS\MARCELO\DESKTOP\COMPILADOR\COMPILER_TESTE_V1.1_NOVO\COMPILER_TESTE_V0\DEBUG\TYPES.OBJ
C:\PROGRAM FILES (X86)\WINDOWS KITS\8.0\LIB\WIN8\UM\X86\KERNEL32.LIB
C:\PROGRAM FILES (X86)\WINDOWS KITS\8.0\LIB\WIN8\UM\X86\USER32.LIB
C:\PROGRAM FILES (X86)\WINDOWS KITS\8.0\LIB\WIN8\UM\X86\GDI32.LIB
C:\PROGRAM FILES (X86)\WINDOWS KITS\8.0\LIB\WIN8\UM\X86\WINSPOOL.LIB
C:\PROGRAM FILES (X86)\WINDOWS KITS\8.0\LIB\WIN8\UM\X86\COMDLG32.LIB
C:\PROGRAM FILES (X86)\WINDOWS KITS\8.0\LIB\WIN8\UM\X86\ADVAPI32.LIB
C:\PROGRAM FILES (X86)\WINDOWS KITS\8.0\LIB\WIN8\UM\X86\SHELL32.LIB
C:\PROGRAM FILES (X86)\WINDOWS KITS\8.0\LIB\WIN8\UM\X86\OLE32.LIB
C:\PROGRAM FILES (X86)\WINDOWS KITS\8.0\LIB\WIN8\UM\X86\OLEAUT32.LIB
C:\PROGRAM FILES (X86)\WINDOWS KITS\8.0\LIB\WIN8\UM\X86\UUID.LIB
C:\PROGRAM FILES (X86)\WINDOWS KITS\8.0\LIB\WIN8\UM\X86\ODBC32.LIB
C:\PROGRAM FILES (X86)\WINDOWS KITS\8.0\LIB\WIN8\UM\X86\ODBCCP32.LIB
C:\USERS\MARCELO\DESKTOP\COMPILADOR\COMPILER_TESTE_V1.1_NOVO\COMPILER_TESTE_V0\DEBUG\BUFFER.OBJ
C:\USERS\MARCELO\DESKTOP\COMPILADOR\COMPILER_TESTE_V1.1_NOVO\COMPILER_TESTE_V0\DEBUG\CODEGEN.OBJ
C:\USERS\MARCELO\DESKTOP\COMPILADOR\COMPILER_TESTE_V1.1_NOVO\COMPILER_TESTE_V0\DEBUG\COMMON.OBJ
C:\USERS\MARCELO\DESKTOP\COMPILADOR\COMPILER_TESTE_V1.1_NOVO\COMPILER_TESTE_V0\DEBUG\COMPILER_TESTE_V0.OBJ
C:\USERS\MARCELO\DESKTOP\COMPILADOR\COMPILER_TESTE_V1.1_NOVO\COMPILER_TESTE_V0\DEBUG\COMPLIST.OBJ
C:\USERS\MARCELO\DESKTOP\COMPILADOR\COMPILER_TESTE_V1.1_NOVO\COMPILER_TESTE_V0\DEBUG\DPLIST.OBJ
C:\USERS\MARCELO\DESKTOP\COMPILADOR\COMPILER_TESTE_V1.1_NOVO\COMPILER_TESTE_V0\DEBUG\EMITASM.OBJ
C:\USERS\MARCELO\DESKTOP\COMPILADOR\COMPILER_TESTE_V1.1_NOVO\COMPILER_TESTE_V0\DEBUG\EMITCODE.OBJ
C:\USERS\MARCELO\DESKTOP\COMPILADOR\COMPILER_TESTE_V1.1_NOVO\COMPILER_TESTE_V0\DEBUG\EMITEXPR.OBJ
C:\USERS\MARCELO\DESKTOP\COMPILADOR\COMPILER_TESTE_V1.1_NOVO\COMPILER_TESTE_V0\DEBUG\EMITRTN.OBJ
C:\USERS\MARCELO\DESKTOP\COMPILADOR\COMPILER_TESTE_V1.1_NOVO\COMPILER_TESTE_V0\DEBUG\EMITSRC.OBJ
C:\USERS\MARCELO\DESKTOP\COMPILADOR\COMPILER_TESTE_V1.1_NOVO\COMPILER_TESTE_V0\DEBUG\EMITSTMT.OBJ
C:\USERS\MARCELO\DESKTOP\COMPILADOR\COMPILER_TESTE_V1.1_NOVO\COMPILER_TESTE_V0\DEBUG\ERROR.OBJ
C:\USERS\MARCELO\DESKTOP\COMPILADOR\COMPILER_TESTE_V1.1_NOVO\COMPILER_TESTE_V0\DEBUG\EXEC.OBJ
C:\USERS\MARCELO\DESKTOP\COMPILADOR\COMPILER_TESTE_V1.1_NOVO\COMPILER_TESTE_V0\DEBUG\EXECEXPR.OBJ
C:\USERS\MARCELO\DESKTOP\COMPILADOR\COMPILER_TESTE_V1.1_NOVO\COMPILER_TESTE_V0\DEBUG\EXECRTN.OBJ
C:\USERS\MARCELO\DESKTOP\COMPILADOR\COMPILER_TESTE_V1.1_NOVO\COMPILER_TESTE_V0\DEBUG\EXECSTMT.OBJ
C:\USERS\MARCELO\DESKTOP\COMPILADOR\COMPILER_TESTE_V1.1_NOVO\COMPILER_TESTE_V0\DEBUG\ICODE.OBJ
C:\USERS\MARCELO\DESKTOP\COMPILADOR\COMPILER_TESTE_V1.1_NOVO\COMPILER_TESTE_V0\DEBUG\LINKER.OBJ
C:\USERS\MARCELO\DESKTOP\COMPILADOR\COMPILER_TESTE_V1.1_NOVO\COMPILER_TESTE_V0\DEBUG\PARSEDECL.OBJ
C:\USERS\MARCELO\DESKTOP\COMPILADOR\COMPILER_TESTE_V1.1_NOVO\COMPILER_TESTE_V0\DEBUG\PARSER.OBJ
C:\USERS\MARCELO\DESKTOP\COMPILADOR\COMPILER_TESTE_V1.1_NOVO\COMPILER_TESTE_V0\DEBUG\PARSEXPR.OBJ
C:\USERS\MARCELO\DESKTOP\COMPILADOR\COMPILER_TESTE_V1.1_NOVO\COMPILER_TESTE_V0\DEBUG\PARSSTMT.OBJ
C:\USERS\MARCELO\DESKTOP\COMPILADOR\COMPILER_TESTE_V1.1_NOVO\COMPILER_TESTE_V0\DEBUG\SCANNER.OBJ
C:\USERS\MARCELO\DESKTOP\COMPILADOR\COMPILER_TESTE_V1.1_NOVO\COMPILER_TESTE_V0\DEBUG\STDAFX.OBJ
C:\USERS\MARCELO\DESKTOP\COMPILADOR\COMPILER_TESTE_V1.1_NOVO\COMPILER_TESTE_V0\DEBUG\SYMTAB.OBJ
C:\USERS\MARCELO\DESKTOP\COMPILADOR\COMPILER_TESTE_V1.1_NOVO\COMPILER_TESTE_V0\DEBUG\TKNNUM.OBJ
C:\USERS\MARCELO\DESKTOP\COMPILADOR\COMPILER_TESTE_V1.1_NOVO\COMPILER_TESTE_V0\DEBUG\TKNSTRSP.OBJ
C:\USERS\MARCELO\DESKTOP\COMPILADOR\COMPILER_TESTE_V1.1_NOVO\COMPILER_TESTE_V0\DEBUG\TKNWORD.OBJ
C:\USERS\MARCELO\DESKTOP\COMPILADOR\COMPILER_TESTE_V1.1_NOVO\COMPILER_TESTE_V0\DEBUG\TOKEN.OBJ
C:\USERS\MARCELO\DESKTOP\COMPILADOR\COMPILER_TESTE_V1.1_NOVO\COMPILER_TESTE_V0\DEBUG\TYPES.OBJ
C:\WINDOWS\SYSTEM32\TZRES.DLL
C:\WINDOWS\GLOBALIZATION\SORTING\SORTDEFAULT.NLS
C:\PROGRAM FILES (X86)\MICROSOFT VISUAL STUDIO 11.0\VC\LIB\MSVCPRTD.LIB
C:\PROGRAM FILES (X86)\MICROSOFT VISUAL STUDIO 11.0\VC\LIB\MSVCRTD.LIB
C:\PROGRAM FILES (X86)\MICROSOFT VISUAL STUDIO 11.0\VC\LIB\OLDNAMES.LIB
